<?xml version="1.0" encoding="UTF-8" standalone="no"?>
<!-- Created with Inkscape (http://www.inkscape.org/) -->

<svg
   xmlns:osb="http://www.openswatchbook.org/uri/2009/osb"
   xmlns:dc="http://purl.org/dc/elements/1.1/"
   xmlns:cc="http://creativecommons.org/ns#"
   xmlns:rdf="http://www.w3.org/1999/02/22-rdf-syntax-ns#"
   xmlns:svg="http://www.w3.org/2000/svg"
   xmlns="http://www.w3.org/2000/svg"
   xmlns:sodipodi="http://sodipodi.sourceforge.net/DTD/sodipodi-0.dtd"
   xmlns:inkscape="http://www.inkscape.org/namespaces/inkscape"
   width="64"
   height="64"
   viewBox="0 0 16.933333 16.933333"
   version="1.1"
   id="svg8"
   inkscape:version="0.92.4 5da689c313, 2019-01-14"
   sodipodi:docname="u4e16.svg">
  <title
     id="title">Array Input Method</title>
  <defs
     id="colors">
    <linearGradient
       id="lG01"
       osb:paint="solid">
      <stop
         style="stop-color:#00988c;stop-opacity:1;"
         offset="0"
         id="lG01-stop" />
    </linearGradient>
    <linearGradient
       id="lG02"
       osb:paint="solid">
      <stop
         style="stop-color:#90dd90;stop-opacity:1;"
         offset="0"
         id="lG02-stop" />
    </linearGradient>
    <linearGradient
       id="lG03"
       osb:paint="solid">
      <stop
         style="stop-color:#ff9955;stop-opacity:1;"
         offset="0"
         id="lG03-stop" />
    </linearGradient>
    <linearGradient
       id="lG04"
       osb:paint="solid">
      <stop
         style="stop-color:#d35f5f;stop-opacity:1;"
         offset="0"
         id="lG04-stop" />
    </linearGradient>
    <linearGradient
       id="lG05"
       osb:paint="solid">
      <stop
         style="stop-color:#b3b3b3;stop-opacity:1;"
         offset="0"
         id="lG05-stop" />
    </linearGradient>
  </defs>
  <sodipodi:namedview
     id="base"
     pagecolor="#ffffff"
     bordercolor="#666666"
     borderopacity="1.0"
     inkscape:pageopacity="0.0"
     inkscape:pageshadow="2"
     inkscape:zoom="11.2"
     inkscape:cx="31.488455"
     inkscape:cy="32.730789"
     inkscape:document-units="mm"
     inkscape:current-layer="layer1"
     showgrid="false"
     units="px"
     inkscape:window-width="1920"
     inkscape:window-height="1010"
     inkscape:window-x="0"
     inkscape:window-y="0"
     inkscape:window-maximized="1" />
  <metadata
     id="metadata">
    <rdf:RDF>
      <cc:Work
         rdf:about="">
        <dc:format>image/svg+xml</dc:format>
        <dc:type
           rdf:resource="http://purl.org/dc/dcmitype/StillImage" />
        <dc:title>Array Input Method</dc:title>
        <cc:license
           rdf:resource="http://creativecommons.org/licenses/by-sa/4.0/" />
        <dc:creator>
          <cc:Agent>
            <dc:title>kogiokka</dc:title>
          </cc:Agent>
        </dc:creator>
      </cc:Work>
      <cc:License
         rdf:about="http://creativecommons.org/licenses/by-sa/4.0/">
        <cc:permits
           rdf:resource="http://creativecommons.org/ns#Reproduction" />
        <cc:permits
           rdf:resource="http://creativecommons.org/ns#Distribution" />
        <cc:requires
           rdf:resource="http://creativecommons.org/ns#Notice" />
        <cc:requires
           rdf:resource="http://creativecommons.org/ns#Attribution" />
        <cc:permits
           rdf:resource="http://creativecommons.org/ns#DerivativeWorks" />
        <cc:requires
           rdf:resource="http://creativecommons.org/ns#ShareAlike" />
      </cc:License>
    </rdf:RDF>
  </metadata>
  <g
     inkscape:label="Layer 1"
     inkscape:groupmode="layer"
     id="layer1"
     transform="translate(0,-280.06667)">
    <path
       style="font-style:normal;font-variant:normal;font-weight:normal;font-stretch:normal;font-size:17.77715492px;line-height:1.25;font-family:'Noto Sans CJK TC';-inkscape-font-specification:'Noto Sans CJK TC';letter-spacing:0px;word-spacing:0px;fill:url(#lG01);fill-opacity:1;stroke:none;"
       d="m 7.7106405,280.99086 v 4.33772 H 4.4756957 v 1.27951 h 3.2349448 v 5.61774 h 6.0445925 v -5.61774 h 2.648933 v -1.27951 h -2.648933 v -4.1243 h -1.351339 v 4.1243 H 9.0087525 v -4.33772 z m -7.18147383,4.33772 v 1.27951 H 3.1067871 v -1.27951 z m 8.47958583,1.27951 h 3.3951415 v 4.39094 H 9.0087525 Z"
       id="path6153"
       inkscape:connector-curvature="0" />
    <path
       style="font-style:normal;font-variant:normal;font-weight:normal;font-stretch:normal;font-size:17.77715492px;line-height:1.25;font-family:'Noto Sans CJK TC';-inkscape-font-specification:'Noto Sans CJK TC';letter-spacing:0px;word-spacing:0px;fill:url(#lG02);fill-opacity:1;stroke:none;"
       d="m 3.1067871,281.39962 v 3.92896 1.27951 9.3865 H 15.906006 V 294.697 H 4.4756957 v -8.08891 -1.27951 -3.92896 z"
       id="path6151"
       inkscape:connector-curvature="0" />
  </g>
</svg>
