<?xml version="1.0" encoding="UTF-8" standalone="no"?>
<!-- Created with Inkscape (http://www.inkscape.org/) -->

<svg
   xmlns:osb="http://www.openswatchbook.org/uri/2009/osb"
   xmlns:dc="http://purl.org/dc/elements/1.1/"
   xmlns:cc="http://creativecommons.org/ns#"
   xmlns:rdf="http://www.w3.org/1999/02/22-rdf-syntax-ns#"
   xmlns:svg="http://www.w3.org/2000/svg"
   xmlns="http://www.w3.org/2000/svg"
   xmlns:sodipodi="http://sodipodi.sourceforge.net/DTD/sodipodi-0.dtd"
   xmlns:inkscape="http://www.inkscape.org/namespaces/inkscape"
   width="64"
   height="64"
   viewBox="0 0 16.933333 16.933334"
   version="1.1"
   id="svg8"
   inkscape:version="0.92.4 (unknown)"
   sodipodi:docname="u5189.svg">
  <title
     id="title">Array Input Method</title>
  <defs
     id="colors">
    <linearGradient
       id="lG01"
       osb:paint="solid">
      <stop
         style="stop-color:#00988c;stop-opacity:1;"
         offset="0"
         id="lG01-stop" />
    </linearGradient>
    <linearGradient
       id="lG02"
       osb:paint="solid">
      <stop
         style="stop-color:#90dd90;stop-opacity:1;"
         offset="0"
         id="lG02-stop" />
    </linearGradient>
    <linearGradient
       id="lG03"
       osb:paint="solid">
      <stop
         style="stop-color:#ff9955;stop-opacity:1;"
         offset="0"
         id="lG03-stop" />
    </linearGradient>
    <linearGradient
       id="lG04"
       osb:paint="solid">
      <stop
         style="stop-color:#d35f5f;stop-opacity:1;"
         offset="0"
         id="lG04-stop" />
    </linearGradient>
    <linearGradient
       id="lG05"
       osb:paint="solid">
      <stop
         style="stop-color:#b3b3b3;stop-opacity:1;"
         offset="0"
         id="lG05-stop" />
    </linearGradient>
  </defs>
  <sodipodi:namedview
     id="base"
     pagecolor="#ffffff"
     bordercolor="#666666"
     borderopacity="1.0"
     inkscape:pageopacity="0.0"
     inkscape:pageshadow="2"
     inkscape:zoom="11.313708"
     inkscape:cx="30.1188"
     inkscape:cy="30.440918"
     inkscape:document-units="px"
     inkscape:current-layer="layer1"
     showgrid="false"
     units="px"
     inkscape:window-width="1920"
     inkscape:window-height="1012"
     inkscape:window-x="0"
     inkscape:window-y="0"
     inkscape:window-maximized="1"
     showguides="false" />
  <metadata
     id="metadata">
    <rdf:RDF>
      <cc:Work
         rdf:about="">
        <dc:format>image/svg+xml</dc:format>
        <dc:type
           rdf:resource="http://purl.org/dc/dcmitype/StillImage" />
        <dc:title>Array Input Method</dc:title>
        <cc:license
           rdf:resource="http://creativecommons.org/licenses/by-sa/4.0/" />
        <dc:creator>
          <cc:Agent>
            <dc:title>kogiokka</dc:title>
          </cc:Agent>
        </dc:creator>
      </cc:Work>
      <cc:License
         rdf:about="http://creativecommons.org/licenses/by-sa/4.0/">
        <cc:permits
           rdf:resource="http://creativecommons.org/ns#Reproduction" />
        <cc:permits
           rdf:resource="http://creativecommons.org/ns#Distribution" />
        <cc:requires
           rdf:resource="http://creativecommons.org/ns#Notice" />
        <cc:requires
           rdf:resource="http://creativecommons.org/ns#Attribution" />
        <cc:permits
           rdf:resource="http://creativecommons.org/ns#DerivativeWorks" />
        <cc:requires
           rdf:resource="http://creativecommons.org/ns#ShareAlike" />
      </cc:License>
    </rdf:RDF>
  </metadata>
  <g
     inkscape:label="Layer 1"
     inkscape:groupmode="layer"
     id="layer1"
     transform="translate(0,-280.06665)">
    <path
       style="font-style:normal;font-variant:normal;font-weight:normal;font-stretch:normal;font-size:17.42590523px;line-height:1.25;font-family:'Noto Sans CJK TC';-inkscape-font-specification:'Noto Sans CJK TC, Normal';font-variant-ligatures:normal;font-variant-caps:normal;font-variant-numeric:normal;font-feature-settings:normal;text-align:start;writing-mode:lr-tb;text-anchor:start;fill:url(#lG01);stroke:none;"       d="M 9.8769531 10.298828 L 9.8769531 38.355469 L 14.683594 38.355469 L 14.683594 28.607422 L 14.683594 24.195312 L 14.683594 14.908203 L 29.767578 14.908203 L 29.767578 10.298828 L 9.8769531 10.298828 z M 34.640625 10.298828 L 34.640625 14.908203 L 50.380859 14.908203 L 50.380859 24.195312 L 50.380859 28.607422 L 50.380859 38.355469 L 55.189453 38.355469 L 55.189453 10.298828 L 34.640625 10.298828 z M 9.8769531 42.966797 L 9.8769531 62 L 14.683594 62 L 14.683594 42.966797 L 9.8769531 42.966797 z M 50.380859 42.966797 L 50.380859 55.677734 C 50.380859 56.797382 49.986291 57.125567 48.800781 57.191406 C 47.615268 57.257166 43.466009 57.258483 39.119141 57.126953 C 39.909481 58.378317 40.633036 60.616353 40.896484 61.933594 C 46.56059 61.933594 50.183441 61.868044 52.291016 61.011719 C 54.464452 60.287259 55.189453 58.707933 55.189453 55.744141 L 55.189453 42.966797 L 50.380859 42.966797 z "
       transform="matrix(0.26458334,0,0,0.26458334,0,280.06665)"
       id="path5083" />
    <path
       style="font-style:normal;font-variant:normal;font-weight:normal;font-stretch:normal;font-size:17.42590523px;line-height:1.25;font-family:'Noto Sans CJK TC';-inkscape-font-specification:'Noto Sans CJK TC, Normal';font-variant-ligatures:normal;font-variant-caps:normal;font-variant-numeric:normal;font-feature-settings:normal;text-align:start;writing-mode:lr-tb;text-anchor:start;fill:url(#lG02);stroke:none;"       d="M 29.767578 2 L 29.767578 14.908203 L 29.767578 24.195312 L 14.683594 24.195312 L 14.683594 28.607422 L 29.767578 28.607422 L 29.767578 38.355469 L 14.683594 38.355469 L 9.8769531 38.355469 L 2.5 38.355469 L 2.5 42.966797 L 9.8769531 42.966797 L 14.683594 42.966797 L 50.380859 42.966797 L 55.189453 42.966797 L 62.302734 42.966797 L 62.302734 38.355469 L 55.189453 38.355469 L 50.380859 38.355469 L 34.640625 38.355469 L 34.640625 28.607422 L 50.380859 28.607422 L 50.380859 24.195312 L 34.640625 24.195312 L 34.640625 14.908203 L 34.640625 2 L 29.767578 2 z "
       transform="matrix(0.26458334,0,0,0.26458334,0,280.06665)"
       id="path5081" />
  </g>
</svg>
