<?xml version="1.0" encoding="UTF-8" standalone="no"?>
<!-- Created with Inkscape (http://www.inkscape.org/) -->

<svg
   xmlns:osb="http://www.openswatchbook.org/uri/2009/osb"
   xmlns:dc="http://purl.org/dc/elements/1.1/"
   xmlns:cc="http://creativecommons.org/ns#"
   xmlns:rdf="http://www.w3.org/1999/02/22-rdf-syntax-ns#"
   xmlns:svg="http://www.w3.org/2000/svg"
   xmlns="http://www.w3.org/2000/svg"
   xmlns:sodipodi="http://sodipodi.sourceforge.net/DTD/sodipodi-0.dtd"
   xmlns:inkscape="http://www.inkscape.org/namespaces/inkscape"
   width="64"
   height="64"
   viewBox="0 0 16.933333 16.933334"
   version="1.1"
   id="svg8"
   inkscape:version="0.92.4 5da689c313, 2019-01-14"
   sodipodi:docname="u500f.svg">
  <title
     id="title">Array Input Method</title>
  <defs
     id="colors">
    <linearGradient
       id="lG01"
       osb:paint="solid">
      <stop
         style="stop-color:#00988c;stop-opacity:1;"
         offset="0"
         id="lG01-stop" />
    </linearGradient>
    <linearGradient
       id="lG02"
       osb:paint="solid">
      <stop
         style="stop-color:#90dd90;stop-opacity:1;"
         offset="0"
         id="lG02-stop" />
    </linearGradient>
    <linearGradient
       id="lG03"
       osb:paint="solid">
      <stop
         style="stop-color:#ff9955;stop-opacity:1;"
         offset="0"
         id="lG03-stop" />
    </linearGradient>
    <linearGradient
       id="lG04"
       osb:paint="solid">
      <stop
         style="stop-color:#d35f5f;stop-opacity:1;"
         offset="0"
         id="lG04-stop" />
    </linearGradient>
    <linearGradient
       id="lG05"
       osb:paint="solid">
      <stop
         style="stop-color:#b3b3b3;stop-opacity:1;"
         offset="0"
         id="lG05-stop" />
    </linearGradient>
  </defs>
  <sodipodi:namedview
     id="base"
     pagecolor="#ffffff"
     bordercolor="#666666"
     borderopacity="1.0"
     inkscape:pageopacity="0.0"
     inkscape:pageshadow="2"
     inkscape:zoom="15.014971"
     inkscape:cx="35.38706"
     inkscape:cy="33.42451"
     inkscape:document-units="px"
     inkscape:current-layer="layer1"
     showgrid="false"
     units="px"
     inkscape:window-width="1920"
     inkscape:window-height="1010"
     inkscape:window-x="0"
     inkscape:window-y="0"
     inkscape:window-maximized="1" />
  <metadata
     id="metadata">
    <rdf:RDF>
      <cc:Work
         rdf:about="">
        <dc:format>image/svg+xml</dc:format>
        <dc:type
           rdf:resource="http://purl.org/dc/dcmitype/StillImage" />
        <dc:title>Array Input Method</dc:title>
        <cc:license
           rdf:resource="http://creativecommons.org/licenses/by-sa/4.0/" />
        <dc:creator>
          <cc:Agent>
            <dc:title>kogiokka</dc:title>
          </cc:Agent>
        </dc:creator>
      </cc:Work>
      <cc:License
         rdf:about="http://creativecommons.org/licenses/by-sa/4.0/">
        <cc:permits
           rdf:resource="http://creativecommons.org/ns#Reproduction" />
        <cc:permits
           rdf:resource="http://creativecommons.org/ns#Distribution" />
        <cc:requires
           rdf:resource="http://creativecommons.org/ns#Notice" />
        <cc:requires
           rdf:resource="http://creativecommons.org/ns#Attribution" />
        <cc:permits
           rdf:resource="http://creativecommons.org/ns#DerivativeWorks" />
        <cc:requires
           rdf:resource="http://creativecommons.org/ns#ShareAlike" />
      </cc:License>
    </rdf:RDF>
  </metadata>
  <g
     inkscape:label="Layer 1"
     inkscape:groupmode="layer"
     id="layer1"
     transform="translate(0,-280.06665)">
    <path
       style="font-style:normal;font-variant:normal;font-weight:normal;font-stretch:normal;font-size:16.83456993px;line-height:1.25;font-family:'Noto Sans CJK TC';-inkscape-font-specification:'Noto Sans CJK TC';text-align:start;text-anchor:start;fill:url(#lG03);fill-opacity:1;stroke:none;"
       d="M 38.076172 3.2460938 C 35.276595 9.3542638 30.567828 15.206959 25.414062 18.960938 C 26.432091 19.66083 28.149715 21.251279 28.849609 21.951172 C 30.567531 20.614996 32.158205 19.023743 33.8125 17.242188 C 35.530421 19.787246 37.821518 22.268855 40.621094 24.623047 C 36.485356 27.422619 31.522979 29.460129 25.923828 31.050781 C 26.878229 31.877931 28.468375 33.786975 29.041016 34.677734 C 34.640167 32.896178 39.857804 30.478217 44.248047 27.296875 C 48.383784 29.96919 53.346162 32.259261 58.945312 33.722656 C 59.581578 32.513774 60.791691 30.732594 61.746094 29.841797 C 56.401449 28.632915 51.692906 26.786639 47.748047 24.496094 C 51.183891 21.314752 54.046802 17.62494 56.146484 13.107422 L 60.537109 13.107422 L 60.537109 9.2890625 L 39.730469 9.2890625 C 40.684867 7.6983728 41.576322 6.043777 42.339844 4.453125 L 38.076172 3.2460938 z M 37.185547 13.107422 L 51.119141 13.107422 C 49.401217 16.543277 47.047097 19.469723 44.056641 21.951172 C 40.748054 19.533333 38.20425 16.798462 36.486328 14.0625 L 37.185547 13.107422 z "
       transform="matrix(0.26458334,0,0,0.26458334,0,280.06665)"
       id="path851" />
    <path
       style="font-style:normal;font-variant:normal;font-weight:normal;font-stretch:normal;font-size:16.83456993px;line-height:1.25;font-family:'Noto Sans CJK TC';-inkscape-font-specification:'Noto Sans CJK TC';text-align:start;text-anchor:start;fill:url(#lG01);fill-opacity:1;stroke:none;"
       d="M 15.615234,3.6269531 C 12.561152,13.425454 7.471898,23.096301 2,29.458984 c 0.7635206,1.208882 2.0350817,3.690665 2.4804688,4.835938 2.0360549,-2.545058 4.1372467,-5.407696 5.9824222,-8.525391 v 35.63086 h 4.517578 V 17.371094 c 1.908801,-4.072101 3.626729,-8.3357991 4.96289,-12.5351565 z"
       transform="matrix(0.26458334,0,0,0.26458334,0,280.06665)"
       id="path849" />
    <path
       style="font-style:normal;font-variant:normal;font-weight:normal;font-stretch:normal;font-size:16.83456993px;line-height:1.25;font-family:'Noto Sans CJK TC';-inkscape-font-specification:'Noto Sans CJK TC';text-align:start;text-anchor:start;fill:url(#lG02);fill-opacity:1;stroke:none;"
       d="m 20.261719,10.753906 v 40.148438 h 4.199219 V 10.753906 Z"
       transform="matrix(0.26458334,0,0,0.26458334,0,280.06665)"
       id="path847" />
    <path
       style="font-style:normal;font-variant:normal;font-weight:normal;font-stretch:normal;font-size:16.83456993px;line-height:1.25;font-family:'Noto Sans CJK TC';-inkscape-font-specification:'Noto Sans CJK TC';text-align:start;text-anchor:start;fill:url(#lG05);fill-opacity:1;stroke:none;"
       d="M 41.576172 31.941406 C 41.385306 34.613759 41.066481 37.158674 40.621094 39.449219 L 27.132812 39.449219 L 27.132812 43.648438 L 39.539062 43.648438 C 37.375754 50.011121 33.11372 54.718812 23.824219 57.582031 C 24.778619 58.409181 25.98708 60.127321 26.496094 61.208984 C 37.249009 57.645873 41.957487 51.66542 44.248047 43.648438 L 60.599609 43.648438 L 60.599609 39.449219 L 56.527344 39.449219 L 55.644531 40.220703 L 54.873047 39.449219 L 45.203125 39.449219 C 45.648512 37.095027 45.901744 34.550112 46.15625 31.941406 L 41.576172 31.941406 z M 46.984375 45.365234 L 43.867188 48.166016 C 48.957323 51.919994 55.44614 57.645067 58.818359 61.144531 L 62 57.964844 C 58.627785 54.656283 52.201763 49.182822 46.984375 45.365234 z "
       transform="matrix(0.26458334,0,0,0.26458334,0,280.06665)"
       id="path843" />
    <path
       style="font-style:normal;font-variant:normal;font-weight:normal;font-stretch:normal;font-size:16.83456993px;line-height:1.25;font-family:'Noto Sans CJK TC';-inkscape-font-specification:'Noto Sans CJK TC';text-align:start;text-anchor:start;fill:url(#lG04);fill-opacity:1;stroke:none;"
       d="m 54.873047,39.449219 0.771484,0.771484 0.882813,-0.771484 2.164062,-1.78125 c -1.590667,-1.527043 -4.581358,-3.88281 -6.935547,-5.53711 l -2.925781,2.228516 c 2.036054,1.463395 4.51593,3.499192 6.042969,5.089844 z"
       transform="matrix(0.26458334,0,0,0.26458334,0,280.06665)"
       id="path841" />
  </g>
</svg>
