<?xml version="1.0" encoding="UTF-8" standalone="no"?>
<!-- Created with Inkscape (http://www.inkscape.org/) -->

<svg
   xmlns:osb="http://www.openswatchbook.org/uri/2009/osb"
   xmlns:dc="http://purl.org/dc/elements/1.1/"
   xmlns:cc="http://creativecommons.org/ns#"
   xmlns:rdf="http://www.w3.org/1999/02/22-rdf-syntax-ns#"
   xmlns:svg="http://www.w3.org/2000/svg"
   xmlns="http://www.w3.org/2000/svg"
   xmlns:sodipodi="http://sodipodi.sourceforge.net/DTD/sodipodi-0.dtd"
   xmlns:inkscape="http://www.inkscape.org/namespaces/inkscape"
   width="64"
   height="64"
   viewBox="0 0 16.933333 16.933334"
   version="1.1"
   id="svg8"
   inkscape:version="0.92.4 5da689c313, 2019-01-14"
   sodipodi:docname="u5006.svg">
  <title
     id="title">Array Input Method</title>
  <defs
     id="colors">
    <linearGradient
       id="lG01"
       osb:paint="solid">
      <stop
         style="stop-color:#00988c;stop-opacity:1;"
         offset="0"
         id="lG01-stop" />
    </linearGradient>
    <linearGradient
       id="lG02"
       osb:paint="solid">
      <stop
         style="stop-color:#90dd90;stop-opacity:1;"
         offset="0"
         id="lG02-stop" />
    </linearGradient>
    <linearGradient
       id="lG03"
       osb:paint="solid">
      <stop
         style="stop-color:#ff9955;stop-opacity:1;"
         offset="0"
         id="lG03-stop" />
    </linearGradient>
    <linearGradient
       id="lG04"
       osb:paint="solid">
      <stop
         style="stop-color:#d35f5f;stop-opacity:1;"
         offset="0"
         id="lG04-stop" />
    </linearGradient>
    <linearGradient
       id="lG05"
       osb:paint="solid">
      <stop
         style="stop-color:#b3b3b3;stop-opacity:1;"
         offset="0"
         id="lG05-stop" />
    </linearGradient>
  </defs>
  <sodipodi:namedview
     id="base"
     pagecolor="#ffffff"
     bordercolor="#666666"
     borderopacity="1.0"
     inkscape:pageopacity="0.0"
     inkscape:pageshadow="2"
     inkscape:zoom="11.313708"
     inkscape:cx="14.126721"
     inkscape:cy="28.364716"
     inkscape:document-units="px"
     inkscape:current-layer="layer1"
     showgrid="false"
     units="px"
     inkscape:window-width="1920"
     inkscape:window-height="1010"
     inkscape:window-x="0"
     inkscape:window-y="0"
     inkscape:window-maximized="1" />
  <metadata
     id="metadata">
    <rdf:RDF>
      <cc:Work
         rdf:about="">
        <dc:format>image/svg+xml</dc:format>
        <dc:type
           rdf:resource="http://purl.org/dc/dcmitype/StillImage" />
        <dc:title>Array Input Method</dc:title>
        <cc:license
           rdf:resource="http://creativecommons.org/licenses/by-sa/4.0/" />
        <dc:creator>
          <cc:Agent>
            <dc:title>kogiokka</dc:title>
          </cc:Agent>
        </dc:creator>
      </cc:Work>
      <cc:License
         rdf:about="http://creativecommons.org/licenses/by-sa/4.0/">
        <cc:permits
           rdf:resource="http://creativecommons.org/ns#Reproduction" />
        <cc:permits
           rdf:resource="http://creativecommons.org/ns#Distribution" />
        <cc:requires
           rdf:resource="http://creativecommons.org/ns#Notice" />
        <cc:requires
           rdf:resource="http://creativecommons.org/ns#Attribution" />
        <cc:permits
           rdf:resource="http://creativecommons.org/ns#DerivativeWorks" />
        <cc:requires
           rdf:resource="http://creativecommons.org/ns#ShareAlike" />
      </cc:License>
    </rdf:RDF>
  </metadata>
  <g
     inkscape:label="Layer 1"
     inkscape:groupmode="layer"
     id="layer1"
     transform="translate(0,-280.06665)">
    <path
       style="font-style:normal;font-variant:normal;font-weight:normal;font-stretch:normal;font-size:17.08826637px;line-height:1.25;font-family:'Noto Sans CJK TC';-inkscape-font-specification:'Noto Sans CJK TC';text-align:start;text-anchor:start;fill:url(#lG01);fill-opacity:1;stroke:none;"
       d="M 15.755859,3.0214844 C 12.655752,12.903097 7.5543594,22.65485 2,29.048828 c 0.7750269,1.162507 2.0674321,3.745797 2.5195312,4.84375 2.1313236,-2.454274 4.1327453,-5.360679 6.0703128,-8.52539 v 36.232421 h 4.457031 V 17.035156 c 2.002153,-4.13348 3.745133,-8.4598525 5.166016,-12.7871091 z"
       transform="matrix(0.26458334,0,0,0.26458334,0,280.06665)"
       id="path899" />
    <path
       style="font-style:normal;font-variant:normal;font-weight:normal;font-stretch:normal;font-size:17.08826637px;line-height:1.25;font-family:'Noto Sans CJK TC';-inkscape-font-specification:'Noto Sans CJK TC';text-align:start;text-anchor:start;fill:url(#lG02);fill-opacity:1;stroke:none;"
       d="M 20.341797,6.8964844 V 11.09375 H 38.685547 43.269531 62 V 6.8964844 Z"
       transform="matrix(0.26458334,0,0,0.26458334,0,280.06665)"
       id="path897" />
    <path
       style="font-style:normal;font-variant:normal;font-weight:normal;font-stretch:normal;font-size:17.08826637px;line-height:1.25;font-family:'Noto Sans CJK TC';-inkscape-font-specification:'Noto Sans CJK TC';text-align:start;text-anchor:start;fill:url(#lG05);fill-opacity:1;stroke:none;"
       d="M 38.685547 11.09375 L 38.685547 14.615234 L 38.685547 18.714844 L 38.943359 22.783203 L 38.943359 48.488281 C 34.874469 43.192294 34.550781 36.346242 34.550781 28.466797 L 28.802734 28.466797 L 28.802734 31.308594 L 32.097656 31.308594 L 32.097656 31.568359 C 31.193458 38.608183 29.319784 45.841982 25.767578 48.619141 C 26.413434 49.13584 27.381886 50.168468 27.833984 50.878906 C 30.094479 48.747593 31.708686 44.872563 32.806641 40.351562 C 33.452496 44.226717 34.680911 47.71475 36.941406 50.621094 C 37.393505 50.104395 38.297502 49.135562 38.943359 48.748047 L 38.943359 61.148438 L 42.947266 61.148438 L 42.947266 48.294922 L 42.947266 22.785156 L 43.269531 18.714844 L 43.269531 13.984375 L 43.269531 11.09375 L 38.685547 11.09375 z "
       transform="matrix(0.26458334,0,0,0.26458334,0,280.06665)"
       id="path924" />
    <path
       style="font-style:normal;font-variant:normal;font-weight:normal;font-stretch:normal;font-size:17.08826637px;line-height:1.25;font-family:'Noto Sans CJK TC';-inkscape-font-specification:'Noto Sans CJK TC';text-align:start;text-anchor:start;fill:url(#lG03);fill-opacity:1;stroke:none;"
       d="M 21.375 18.714844 L 21.375 61.535156 L 25.638672 61.535156 L 25.638672 22.783203 L 38.943359 22.783203 L 38.685547 18.714844 L 21.375 18.714844 z M 43.269531 18.714844 L 42.947266 22.785156 L 56.509766 22.785156 L 56.509766 48.619141 L 56.509766 55.916016 C 56.509766 56.82023 56.187537 57.144531 55.21875 57.144531 C 54.314551 57.209161 51.214191 57.209338 47.726562 57.080078 C 48.372425 58.307215 49.019263 60.243566 49.148438 61.470703 C 53.863186 61.470703 56.767646 61.405714 58.640625 60.695312 C 60.384435 59.920283 60.902344 58.499335 60.902344 55.980469 L 60.902344 18.714844 L 43.269531 18.714844 z "
       transform="matrix(0.26458334,0,0,0.26458334,0,280.06665)"
       id="path922" />
    <path
       style="font-style:normal;font-variant:normal;font-weight:normal;font-stretch:normal;font-size:17.08826637px;line-height:1.25;font-family:'Noto Sans CJK TC';-inkscape-font-specification:'Noto Sans CJK TC';text-align:start;text-anchor:start;fill:url(#lG04);fill-opacity:1;stroke:none;"
       d="M 56.509766,48.619141 C 51.730436,43.387708 51.279297,36.475427 51.279297,28.466797 h -5.941406 v 2.841797 h 3.421875 c -0.839615,6.7169 -2.647807,14.144577 -5.8125,16.986328 0.710437,0.581253 1.549722,1.615734 2.066406,2.326172 2.06674,-2.131351 3.552701,-6.006488 4.521484,-10.462891 0.710442,3.939704 2.131424,7.491955 4.714844,10.462891 0.4521,-0.581292 1.613912,-1.614438 2.259766,-2.001953 z"
       id="path881"
       transform="matrix(0.26458334,0,0,0.26458334,0,280.06665)" />
  </g>
</svg>
