<?xml version="1.0" encoding="UTF-8" standalone="no"?>
<!-- Created with Inkscape (http://www.inkscape.org/) -->

<svg
   xmlns:osb="http://www.openswatchbook.org/uri/2009/osb"
   xmlns:dc="http://purl.org/dc/elements/1.1/"
   xmlns:cc="http://creativecommons.org/ns#"
   xmlns:rdf="http://www.w3.org/1999/02/22-rdf-syntax-ns#"
   xmlns:svg="http://www.w3.org/2000/svg"
   xmlns="http://www.w3.org/2000/svg"
   xmlns:sodipodi="http://sodipodi.sourceforge.net/DTD/sodipodi-0.dtd"
   xmlns:inkscape="http://www.inkscape.org/namespaces/inkscape"
   width="64"
   height="64"
   viewBox="0 0 16.933333 16.933334"
   version="1.1"
   id="svg8"
   inkscape:version="0.92.4 5da689c313, 2019-01-14"
   sodipodi:docname="u50d1.svg">
  <title
     id="title">Array Input Method</title>
  <defs
     id="colors">
    <linearGradient
       id="lG01"
       osb:paint="solid">
      <stop
         style="stop-color:#00988c;stop-opacity:1;"
         offset="0"
         id="lG01-stop" />
    </linearGradient>
    <linearGradient
       id="lG02"
       osb:paint="solid">
      <stop
         style="stop-color:#90dd90;stop-opacity:1;"
         offset="0"
         id="lG02-stop" />
    </linearGradient>
    <linearGradient
       id="lG03"
       osb:paint="solid">
      <stop
         style="stop-color:#ff9955;stop-opacity:1;"
         offset="0"
         id="lG03-stop" />
    </linearGradient>
    <linearGradient
       id="lG04"
       osb:paint="solid">
      <stop
         style="stop-color:#d35f5f;stop-opacity:1;"
         offset="0"
         id="lG04-stop" />
    </linearGradient>
    <linearGradient
       id="lG05"
       osb:paint="solid">
      <stop
         style="stop-color:#b3b3b3;stop-opacity:1;"
         offset="0"
         id="lG05-stop" />
    </linearGradient>
  </defs>
  <sodipodi:namedview
     id="base"
     pagecolor="#ffffff"
     bordercolor="#666666"
     borderopacity="1.0"
     inkscape:pageopacity="0.0"
     inkscape:pageshadow="2"
     inkscape:zoom="21.359376"
     inkscape:cx="38.413467"
     inkscape:cy="29.673608"
     inkscape:document-units="px"
     inkscape:current-layer="layer1"
     showgrid="false"
     units="px"
     inkscape:window-width="1920"
     inkscape:window-height="1010"
     inkscape:window-x="0"
     inkscape:window-y="0"
     inkscape:window-maximized="1" />
  <metadata
     id="metadata">
    <rdf:RDF>
      <cc:Work
         rdf:about="">
        <dc:format>image/svg+xml</dc:format>
        <dc:type
           rdf:resource="http://purl.org/dc/dcmitype/StillImage" />
        <dc:title>Array Input Method</dc:title>
        <cc:license
           rdf:resource="http://creativecommons.org/licenses/by-sa/4.0/" />
        <dc:creator>
          <cc:Agent>
            <dc:title>kogiokka</dc:title>
          </cc:Agent>
        </dc:creator>
      </cc:Work>
      <cc:License
         rdf:about="http://creativecommons.org/licenses/by-sa/4.0/">
        <cc:permits
           rdf:resource="http://creativecommons.org/ns#Reproduction" />
        <cc:permits
           rdf:resource="http://creativecommons.org/ns#Distribution" />
        <cc:requires
           rdf:resource="http://creativecommons.org/ns#Notice" />
        <cc:requires
           rdf:resource="http://creativecommons.org/ns#Attribution" />
        <cc:permits
           rdf:resource="http://creativecommons.org/ns#DerivativeWorks" />
        <cc:requires
           rdf:resource="http://creativecommons.org/ns#ShareAlike" />
      </cc:License>
    </rdf:RDF>
  </metadata>
  <g
     inkscape:label="Layer 1"
     inkscape:groupmode="layer"
     id="layer1"
     transform="translate(0,-280.06665)">
    <path
       style="font-style:normal;font-variant:normal;font-weight:normal;font-stretch:normal;font-size:16.62303734px;line-height:1.25;font-family:'Noto Sans CJK TC';-inkscape-font-specification:'Noto Sans CJK TC';text-align:start;text-anchor:start;fill:url(#lG01);fill-opacity:1;stroke:none;"
       d="M 15.507812,4.015625 C 12.429278,13.314056 7.4659687,22.42367 2,28.455078 2.816754,29.585951 4.0742086,32.099874 4.4511719,33.167969 6.5872977,30.780517 8.5972777,28.016039 10.544922,24.9375 V 61 h 4.460937 V 16.832031 c 1.82199,-3.706809 3.454066,-7.6652522 4.773438,-11.5605466 z"
       transform="matrix(0.26458334,0,0,0.26458334,0,280.06665)"
       id="path920" />
    <path
       style="font-style:normal;font-variant:normal;font-weight:normal;font-stretch:normal;font-size:16.62303734px;line-height:1.25;font-family:'Noto Sans CJK TC';-inkscape-font-specification:'Noto Sans CJK TC';text-align:start;text-anchor:start;fill:url(#lG02);fill-opacity:1;stroke:none;"
       d="M 52.701172 4.7070312 C 48.974635 5.5959321 43.371181 6.3100854 37.300781 6.84375 C 36.575352 6.9075244 35.852127 6.9728702 35.115234 7.03125 C 30.686744 7.382094 26.101221 7.6378344 21.853516 7.7851562 C 22.293306 8.6647282 22.795893 10.235663 22.984375 11.115234 C 26.628354 11.052494 30.524306 10.864544 34.482422 10.613281 L 39.382812 10.236328 C 45.602712 9.6708733 51.569861 8.9157132 56.15625 7.8476562 L 52.701172 4.7070312 z "
       transform="matrix(0.26458334,0,0,0.26458334,0,280.06665)"
       id="path938" />
    <path
       style="font-style:normal;font-variant:normal;font-weight:normal;font-stretch:normal;font-size:16.62303734px;line-height:1.25;font-family:'Noto Sans CJK TC';-inkscape-font-specification:'Noto Sans CJK TC';text-align:start;text-anchor:start;fill:url(#lG03);fill-opacity:1;stroke:none;"
       d="m 39.382812,10.236328 -4.90039,0.376953 c -0.628272,1.445027 -1.257465,2.827089 -2.074219,4.146485 H 19.466797 v 3.580078 h 10.554687 c -3.204188,4.209411 -7.351429,7.540282 -12.251953,9.927734 0.942408,0.816756 2.449853,2.575469 3.078125,3.455078 2.764398,-1.50788 5.341409,-3.329044 7.666016,-5.402344 v -4.083984 h 3.957031 c 1.005236,-1.256542 2.011044,-2.514273 2.890625,-3.896484 h 9.236328 c 0.816752,1.319357 1.820608,2.639942 2.888672,3.896484 h 4.021484 v 4.083984 c 2.387439,2.136116 4.963472,4.020803 7.476563,5.277344 C 59.675473,30.5296 61.057594,28.957381 62,28.140625 57.476442,26.192997 52.512783,22.36077 49.308594,18.339844 H 60.367188 V 14.759766 H 37.371094 c 0.753926,-1.445027 1.383448,-2.95278 2.011718,-4.523438 z"
       transform="matrix(0.26458334,0,0,0.26458334,0,280.06665)"
       id="path936" />
    <path
       style="font-style:normal;font-variant:normal;font-weight:normal;font-stretch:normal;font-size:16.62303734px;line-height:1.25;font-family:'Noto Sans CJK TC';-inkscape-font-specification:'Noto Sans CJK TC';text-align:start;text-anchor:start;fill:url(#lG05);fill-opacity:1;stroke:none;"
       d="M 28.513672 22.236328 L 28.513672 26.320312 L 28.513672 33.607422 L 51.507812 33.607422 L 51.507812 26.320312 L 51.507812 22.236328 L 47.486328 22.236328 L 32.470703 22.236328 L 28.513672 22.236328 z M 32.785156 25.314453 L 47.046875 25.314453 L 47.046875 30.591797 L 32.785156 30.591797 L 32.785156 25.314453 z M 21.287109 36.748047 L 21.287109 60.9375 L 25.685547 60.9375 L 25.685547 40.455078 L 54.271484 40.455078 L 54.271484 56.037109 C 54.271484 56.853865 54.02087 57.105115 53.015625 57.167969 C 52.136042 57.167969 48.868592 57.230949 45.224609 57.105469 C 45.790057 58.173563 46.356441 59.806274 46.544922 61 C 51.382619 61 54.523714 60.99968 56.345703 60.308594 C 58.230519 59.680323 58.669922 58.424208 58.669922 56.099609 L 58.669922 36.748047 L 21.287109 36.748047 z "
       transform="matrix(0.26458334,0,0,0.26458334,0,280.06665)"
       id="path916" />
    <path
       style="font-style:normal;font-variant:normal;font-weight:normal;font-stretch:normal;font-size:16.62303734px;line-height:1.25;font-family:'Noto Sans CJK TC';-inkscape-font-specification:'Noto Sans CJK TC';text-align:start;text-anchor:start;fill:url(#lG04);fill-opacity:1;stroke:none;"
       d="M 30.775391 43.722656 L 30.775391 57.794922 L 34.607422 57.794922 L 34.607422 55.15625 L 49.056641 55.15625 L 49.056641 43.722656 L 30.775391 43.722656 z M 34.607422 46.800781 L 45.224609 46.800781 L 45.224609 52.078125 L 34.607422 52.078125 L 34.607422 46.800781 z "
       transform="matrix(0.26458334,0,0,0.26458334,0,280.06665)"
       id="path910" />
  </g>
</svg>
