<?xml version="1.0" encoding="UTF-8" standalone="no"?>
<!-- Created with Inkscape (http://www.inkscape.org/) -->

<svg
   xmlns:osb="http://www.openswatchbook.org/uri/2009/osb"
   xmlns:dc="http://purl.org/dc/elements/1.1/"
   xmlns:cc="http://creativecommons.org/ns#"
   xmlns:rdf="http://www.w3.org/1999/02/22-rdf-syntax-ns#"
   xmlns:svg="http://www.w3.org/2000/svg"
   xmlns="http://www.w3.org/2000/svg"
   xmlns:sodipodi="http://sodipodi.sourceforge.net/DTD/sodipodi-0.dtd"
   xmlns:inkscape="http://www.inkscape.org/namespaces/inkscape"
   width="64"
   height="64"
   viewBox="0 0 16.933333 16.933334"
   version="1.1"
   id="svg8"
   inkscape:version="0.92.4 5da689c313, 2019-01-14"
   sodipodi:docname="u50ed.svg">
  <title
     id="title">Array Input Method</title>
  <defs
     id="colors">
    <linearGradient
       id="lG01"
       osb:paint="solid">
      <stop
         style="stop-color:#00988c;stop-opacity:1;"
         offset="0"
         id="lG01-stop" />
    </linearGradient>
    <linearGradient
       id="lG02"
       osb:paint="solid">
      <stop
         style="stop-color:#90dd90;stop-opacity:1;"
         offset="0"
         id="lG02-stop" />
    </linearGradient>
    <linearGradient
       id="lG03"
       osb:paint="solid">
      <stop
         style="stop-color:#ff9955;stop-opacity:1;"
         offset="0"
         id="lG03-stop" />
    </linearGradient>
    <linearGradient
       id="lG04"
       osb:paint="solid">
      <stop
         style="stop-color:#d35f5f;stop-opacity:1;"
         offset="0"
         id="lG04-stop" />
    </linearGradient>
    <linearGradient
       id="lG05"
       osb:paint="solid">
      <stop
         style="stop-color:#b3b3b3;stop-opacity:1;"
         offset="0"
         id="lG05-stop" />
    </linearGradient>
  </defs>
  <sodipodi:namedview
     id="base"
     pagecolor="#ffffff"
     bordercolor="#666666"
     borderopacity="1.0"
     inkscape:pageopacity="0.0"
     inkscape:pageshadow="2"
     inkscape:zoom="7.5516795"
     inkscape:cx="49.754255"
     inkscape:cy="33.961622"
     inkscape:document-units="px"
     inkscape:current-layer="layer1"
     showgrid="false"
     units="px"
     inkscape:window-width="1920"
     inkscape:window-height="1010"
     inkscape:window-x="0"
     inkscape:window-y="0"
     inkscape:window-maximized="1" />
  <metadata
     id="metadata">
    <rdf:RDF>
      <cc:Work
         rdf:about="">
        <dc:format>image/svg+xml</dc:format>
        <dc:type
           rdf:resource="http://purl.org/dc/dcmitype/StillImage" />
        <dc:title>Array Input Method</dc:title>
        <cc:license
           rdf:resource="http://creativecommons.org/licenses/by-sa/4.0/" />
        <dc:creator>
          <cc:Agent>
            <dc:title>kogiokka</dc:title>
          </cc:Agent>
        </dc:creator>
      </cc:Work>
      <cc:License
         rdf:about="http://creativecommons.org/licenses/by-sa/4.0/">
        <cc:permits
           rdf:resource="http://creativecommons.org/ns#Reproduction" />
        <cc:permits
           rdf:resource="http://creativecommons.org/ns#Distribution" />
        <cc:requires
           rdf:resource="http://creativecommons.org/ns#Notice" />
        <cc:requires
           rdf:resource="http://creativecommons.org/ns#Attribution" />
        <cc:permits
           rdf:resource="http://creativecommons.org/ns#DerivativeWorks" />
        <cc:requires
           rdf:resource="http://creativecommons.org/ns#ShareAlike" />
      </cc:License>
    </rdf:RDF>
  </metadata>
  <g
     inkscape:label="Layer 1"
     inkscape:groupmode="layer"
     id="layer1"
     transform="translate(0,-280.06665)">
    <path
       style="font-style:normal;font-variant:normal;font-weight:normal;font-stretch:normal;font-size:17.21800423px;line-height:1.25;font-family:'Noto Sans CJK TC';-inkscape-font-specification:'Noto Sans CJK TC';text-align:start;text-anchor:start;fill:url(#lG01);fill-opacity:1;stroke:none;"
       d="M 13.712891,2.8457031 C 11.17493,12.737218 6.9457701,22.694904 2,29.267578 c 0.845987,1.171351 2.1466539,3.70947 2.5371094,4.88086 1.7570498,-2.407825 3.3848207,-5.142628 5.0117187,-8.201172 V 61.935547 H 14.103516 V 15.925781 c 1.496746,-3.904554 2.864412,-7.9379347 3.970703,-11.972656 z"
       transform="matrix(0.26458334,0,0,0.26458334,0,280.06665)"
       id="path1605" />
    <path
       style="font-style:normal;font-variant:normal;font-weight:normal;font-stretch:normal;font-size:17.21800423px;line-height:1.25;font-family:'Noto Sans CJK TC';-inkscape-font-specification:'Noto Sans CJK TC';text-align:start;text-anchor:start;fill:url(#lG02);fill-opacity:1;stroke:none;"
       d="M 19.050781 4.9277344 L 19.050781 8.5078125 L 21.261719 8.5078125 C 20.741112 12.672663 19.961306 17.74885 19.310547 21.132812 L 26.728516 21.132812 C 27.058072 20.049978 27.353151 19.824483 27.705078 17.488281 L 23.150391 17.488281 C 23.736074 14.689995 24.256029 11.371145 24.646484 8.5078125 L 28.160156 8.5078125 L 32 8.5078125 L 39.158203 8.5078125 L 39.158203 4.9277344 L 19.050781 4.9277344 z M 31.544922 17.488281 C 31.40299 18.767727 31.086778 19.978167 30.632812 21.132812 L 34.017578 21.132812 L 38.767578 21.132812 L 38.767578 17.488281 L 31.544922 17.488281 z "
       transform="matrix(0.26458334,0,0,0.26458334,0,280.06665)"
       id="path1621" />
    <path
       style="font-style:normal;font-variant:normal;font-weight:normal;font-stretch:normal;font-size:17.21800423px;line-height:1.25;font-family:'Noto Sans CJK TC';-inkscape-font-specification:'Noto Sans CJK TC';text-align:start;text-anchor:start;fill:url(#lG03);fill-opacity:1;stroke:none;"
       d="M 28.160156 8.5078125 L 28.160156 11.154297 L 28.160156 11.695312 C 28.160156 13.45238 28.095536 15.340754 27.705078 17.488281 C 27.353151 19.824483 27.058072 20.049978 26.728516 21.132812 C 25.361921 25.03737 22.564572 29.071843 16.837891 32.585938 C 17.748954 33.30178 18.984629 34.538756 19.570312 35.384766 C 25.88268 31.024665 29.07099 25.948425 30.632812 21.132812 C 31.086777 19.978167 31.40299 18.767727 31.544922 17.488281 C 31.870301 15.340754 32 13.45238 32 11.695312 L 32 11.023438 L 32 8.5078125 L 28.160156 8.5078125 z M 30.632812 21.132812 L 30.632812 23.722656 L 30.632812 26.664062 C 30.632812 29.527398 29.201456 31.089475 28.355469 31.740234 C 29.006228 32.390993 29.916805 33.691138 30.242188 34.537109 C 31.023099 33.626054 32.325656 32.586563 40.134766 28.03125 C 39.74431 27.380491 39.157411 26.078394 38.832031 25.232422 L 34.017578 27.835938 L 34.017578 23.263672 L 34.017578 21.132812 L 30.632812 21.132812 z "
       transform="matrix(0.26458334,0,0,0.26458334,0,280.06665)"
       id="path1603" />
    <path
       style="font-style:normal;font-variant:normal;font-weight:normal;font-stretch:normal;font-size:17.21800423px;line-height:1.25;font-family:'Noto Sans CJK TC';-inkscape-font-specification:'Noto Sans CJK TC';text-align:start;text-anchor:start;fill:url(#lG05);fill-opacity:1;stroke:none;"
       d="M 40.720703 4.9277344 L 40.720703 8.5078125 L 42.607422 8.5078125 C 42.151891 12.737746 41.565529 17.877794 41.044922 21.261719 L 48.59375 21.261719 C 47.227156 25.166273 44.493635 29.202606 38.832031 32.521484 C 39.743094 33.172243 40.980723 34.407935 41.566406 35.253906 C 45.731268 32.520741 48.464984 29.462149 50.287109 26.273438 L 50.287109 29.851562 C 50.287109 33.430739 51.067848 34.341797 54.386719 34.341797 L 58.095703 34.341797 C 60.698739 34.341797 61.67462 33.04185 62 27.445312 C 60.958782 27.184903 59.592788 26.663208 58.876953 26.142578 C 58.746786 30.567762 58.55098 31.023438 57.509766 31.023438 L 54.777344 31.023438 C 53.866281 31.023438 53.736328 30.8929 53.736328 29.851562 L 53.736328 23.019531 L 51.914062 23.019531 C 52.109277 22.498901 52.302819 21.847394 52.498047 21.261719 L 61.023438 21.261719 L 61.023438 17.619141 L 53.345703 17.619141 C 53.671083 15.666863 53.736328 13.974554 53.736328 12.347656 L 53.736328 8.5078125 L 60.958984 8.5078125 L 60.958984 4.9277344 L 40.720703 4.9277344 z M 45.861328 8.5078125 L 49.830078 8.5078125 L 49.830078 12.347656 C 49.830078 13.909508 49.764828 15.666863 49.439453 17.619141 L 44.625 17.619141 C 45.080531 14.755808 45.535945 11.436228 45.861328 8.5078125 z "
       transform="matrix(0.26458334,0,0,0.26458334,0,280.06665)"
       id="path1597" />
    <path
       style="font-style:normal;font-variant:normal;font-weight:normal;font-stretch:normal;font-size:17.21800423px;line-height:1.25;font-family:'Noto Sans CJK TC';-inkscape-font-specification:'Noto Sans CJK TC';text-align:start;text-anchor:start;fill:url(#lG04);fill-opacity:1;stroke:none;"
       d="M 22.824219 36.621094 L 22.824219 62 L 27.378906 62 L 27.378906 59.591797 L 51.783203 59.591797 L 51.783203 61.740234 L 56.533203 61.740234 L 56.533203 36.621094 L 22.824219 36.621094 z M 27.378906 40.525391 L 51.783203 40.525391 L 51.783203 46.1875 L 27.378906 46.1875 L 27.378906 40.525391 z M 27.378906 49.701172 L 51.783203 49.701172 L 51.783203 55.6875 L 27.378906 55.6875 L 27.378906 49.701172 z "
       transform="matrix(0.26458334,0,0,0.26458334,0,280.06665)"
       id="path1591" />
  </g>
</svg>
