<?xml version="1.0" encoding="UTF-8" standalone="no"?>
<!-- Created with Inkscape (http://www.inkscape.org/) -->

<svg
   xmlns:osb="http://www.openswatchbook.org/uri/2009/osb"
   xmlns:dc="http://purl.org/dc/elements/1.1/"
   xmlns:cc="http://creativecommons.org/ns#"
   xmlns:rdf="http://www.w3.org/1999/02/22-rdf-syntax-ns#"
   xmlns:svg="http://www.w3.org/2000/svg"
   xmlns="http://www.w3.org/2000/svg"
   xmlns:sodipodi="http://sodipodi.sourceforge.net/DTD/sodipodi-0.dtd"
   xmlns:inkscape="http://www.inkscape.org/namespaces/inkscape"
   width="64"
   height="64"
   viewBox="0 0 16.933333 16.933334"
   version="1.1"
   id="svg8"
   inkscape:version="0.92.4 (unknown)"
   sodipodi:docname="u5109.svg">
  <title
     id="title">Array Input Method</title>
  <defs
     id="colors">
    <linearGradient
       id="lG01"
       osb:paint="solid">
      <stop
         style="stop-color:#00988c;stop-opacity:1;"
         offset="0"
         id="lG01-stop" />
    </linearGradient>
    <linearGradient
       id="lG02"
       osb:paint="solid">
      <stop
         style="stop-color:#90dd90;stop-opacity:1;"
         offset="0"
         id="lG02-stop" />
    </linearGradient>
    <linearGradient
       id="lG03"
       osb:paint="solid">
      <stop
         style="stop-color:#ff9955;stop-opacity:1;"
         offset="0"
         id="lG03-stop" />
    </linearGradient>
    <linearGradient
       id="lG04"
       osb:paint="solid">
      <stop
         style="stop-color:#d35f5f;stop-opacity:1;"
         offset="0"
         id="lG04-stop" />
    </linearGradient>
    <linearGradient
       id="lG05"
       osb:paint="solid">
      <stop
         style="stop-color:#b3b3b3;stop-opacity:1;"
         offset="0"
         id="lG05-stop" />
    </linearGradient>
  </defs>
  <sodipodi:namedview
     id="base"
     pagecolor="#ffffff"
     bordercolor="#666666"
     borderopacity="1.0"
     inkscape:pageopacity="0.0"
     inkscape:pageshadow="2"
     inkscape:zoom="7.9999996"
     inkscape:cx="16.056821"
     inkscape:cy="34.836164"
     inkscape:document-units="px"
     inkscape:current-layer="layer1"
     showgrid="false"
     units="px"
     inkscape:window-width="1920"
     inkscape:window-height="1089"
     inkscape:window-x="0"
     inkscape:window-y="0"
     inkscape:window-maximized="1" />
  <metadata
     id="metadata">
    <rdf:RDF>
      <cc:Work
         rdf:about="">
        <dc:format>image/svg+xml</dc:format>
        <dc:type
           rdf:resource="http://purl.org/dc/dcmitype/StillImage" />
        <dc:title>Array Input Method</dc:title>
        <cc:license
           rdf:resource="http://creativecommons.org/licenses/by-sa/4.0/" />
        <dc:creator>
          <cc:Agent>
            <dc:title>kogiokka</dc:title>
          </cc:Agent>
        </dc:creator>
      </cc:Work>
      <cc:License
         rdf:about="http://creativecommons.org/licenses/by-sa/4.0/">
        <cc:permits
           rdf:resource="http://creativecommons.org/ns#Reproduction" />
        <cc:permits
           rdf:resource="http://creativecommons.org/ns#Distribution" />
        <cc:requires
           rdf:resource="http://creativecommons.org/ns#Notice" />
        <cc:requires
           rdf:resource="http://creativecommons.org/ns#Attribution" />
        <cc:permits
           rdf:resource="http://creativecommons.org/ns#DerivativeWorks" />
        <cc:requires
           rdf:resource="http://creativecommons.org/ns#ShareAlike" />
      </cc:License>
    </rdf:RDF>
  </metadata>
  <g
     inkscape:label="Layer 1"
     inkscape:groupmode="layer"
     id="layer1"
     transform="translate(0,-280.06665)">
    <path
       style="font-style:normal;font-variant:normal;font-weight:normal;font-stretch:normal;font-size:17.63888931px;line-height:1.25;font-family:'Noto Sans CJK TC';-inkscape-font-specification:'Noto Sans CJK TC';fill:url(#lG03);fill-opacity:1;stroke:none;"
       d="M 20.970703 25.466797 L 20.970703 40.742188 L 37.677734 40.742188 L 37.677734 25.466797 L 20.970703 25.466797 z M 25.066406 29.042969 L 33.453125 29.042969 L 33.453125 37.232422 L 25.066406 37.232422 L 25.066406 29.042969 z "
       transform="matrix(0.26458334,0,0,0.26458334,0,280.06665)"
       id="path872" />
    <path
       style="font-style:normal;font-variant:normal;font-weight:normal;font-stretch:normal;font-size:17.63888931px;line-height:1.25;font-family:'Noto Sans CJK TC';-inkscape-font-specification:'Noto Sans CJK TC';fill:url(#lG05);fill-opacity:1;stroke:none;"
       d="M 41.837891 25.466797 L 41.837891 40.742188 L 58.609375 40.742188 L 58.609375 25.466797 L 41.837891 25.466797 z M 45.933594 29.042969 L 54.318359 29.042969 L 54.318359 37.232422 L 45.933594 37.232422 L 45.933594 29.042969 z M 28.1875 42.693359 C 26.172335 49.453914 21.686412 54.915143 15.835938 58.230469 C 16.811016 59.010488 18.630645 60.764273 19.345703 61.609375 C 22.920993 59.269167 26.107371 56.149729 28.642578 52.314453 C 31.567816 54.4596 34.558463 56.994863 36.183594 58.75 L 39.042969 55.5 C 37.222823 53.549877 33.713452 50.948724 30.658203 48.933594 C 31.503273 47.308435 32.217687 45.553084 32.802734 43.667969 L 28.1875 42.693359 z "
       transform="matrix(0.26458334,0,0,0.26458334,0,280.06665)"
       id="path868" />
    <path
       style="font-style:normal;font-variant:normal;font-weight:normal;font-stretch:normal;font-size:17.63888931px;line-height:1.25;font-family:'Noto Sans CJK TC';-inkscape-font-specification:'Noto Sans CJK TC';fill:url(#lG02);fill-opacity:1;stroke:none;"
       d="M 38.652344 2 C 34.361998 8.4355149 26.107702 14.676983 16.876953 18.902344 C 17.852032 19.617393 19.346041 21.242309 19.996094 22.152344 C 27.34169 18.64207 34.103419 13.960761 39.173828 8.6953125 C 44.764278 13.830783 53.214101 19.032117 60.429688 22.152344 C 60.81972 20.917232 61.730549 18.901971 62.640625 17.796875 C 55.55505 15.261681 46.908855 10.385456 41.773438 5.7050781 C 42.293482 4.9900671 42.812542 4.3395319 43.267578 3.6894531 L 38.652344 2 z M 29.552734 17.082031 L 29.552734 21.175781 L 49.314453 21.175781 L 49.314453 17.082031 L 29.552734 17.082031 z "
       transform="matrix(0.26458334,0,0,0.26458334,0,280.06665)"
       id="path878" />
    <path
       style="font-style:normal;font-variant:normal;font-weight:normal;font-stretch:normal;font-size:17.63888931px;line-height:1.25;font-family:'Noto Sans CJK TC';-inkscape-font-specification:'Noto Sans CJK TC';fill:url(#lG01);fill-opacity:1;stroke:none;"
       d="m 4.1039864,280.80221 c -0.8255671,2.64869 -2.2015122,5.26298 -3.68065306,6.98292 0.20639178,0.32679 0.5503781,0.99756 0.67077316,1.28995 0.5503781,-0.67078 1.1179554,-1.44475 1.6167354,-2.28751 v 9.61442 h 1.2211513 v -11.88473 c 0.5159793,-1.10075 0.9803609,-2.23591 1.3415464,-3.37107 z"
       id="path866" />
    <path
       style="font-style:normal;font-variant:normal;font-weight:normal;font-stretch:normal;font-size:17.63888931px;line-height:1.25;font-family:'Noto Sans CJK TC';-inkscape-font-specification:'Noto Sans CJK TC';fill:url(#lG04);fill-opacity:1;stroke:none;"
       d="m 12.720842,291.34539 c -0.361186,1.90913 -1.324348,3.38828 -2.7862884,4.31704 0.2923874,0.17198 0.7739684,0.61918 0.9631604,0.80836 0.825567,-0.58477 1.547938,-1.35874 2.098317,-2.30471 0.99756,0.75677 2.063918,1.66833 2.665893,2.27032 l 0.825567,-0.85997 c -0.670773,-0.65358 -1.960722,-1.65113 -3.027079,-2.4079 0.206392,-0.49878 0.378385,-1.04917 0.49878,-1.63394 z"
       id="path858" />
  </g>
</svg>
