<?xml version="1.0" encoding="UTF-8" standalone="no"?>
<!-- Created with Inkscape (http://www.inkscape.org/) -->

<svg
   xmlns:osb="http://www.openswatchbook.org/uri/2009/osb"
   xmlns:dc="http://purl.org/dc/elements/1.1/"
   xmlns:cc="http://creativecommons.org/ns#"
   xmlns:rdf="http://www.w3.org/1999/02/22-rdf-syntax-ns#"
   xmlns:svg="http://www.w3.org/2000/svg"
   xmlns="http://www.w3.org/2000/svg"
   xmlns:sodipodi="http://sodipodi.sourceforge.net/DTD/sodipodi-0.dtd"
   xmlns:inkscape="http://www.inkscape.org/namespaces/inkscape"
   width="64"
   height="64"
   viewBox="0 0 16.933333 16.933334"
   version="1.1"
   id="svg8"
   inkscape:version="0.92.4 (unknown)"
   sodipodi:docname="u5180.svg">
  <title
     id="title">Array Input Method</title>
  <defs
     id="colors">
    <linearGradient
       id="lG01"
       osb:paint="solid">
      <stop
         style="stop-color:#00988c;stop-opacity:1;"
         offset="0"
         id="lG01-stop" />
    </linearGradient>
    <linearGradient
       id="lG02"
       osb:paint="solid">
      <stop
         style="stop-color:#90dd90;stop-opacity:1;"
         offset="0"
         id="lG02-stop" />
    </linearGradient>
    <linearGradient
       id="lG03"
       osb:paint="solid">
      <stop
         style="stop-color:#ff9955;stop-opacity:1;"
         offset="0"
         id="lG03-stop" />
    </linearGradient>
    <linearGradient
       id="lG04"
       osb:paint="solid">
      <stop
         style="stop-color:#d35f5f;stop-opacity:1;"
         offset="0"
         id="lG04-stop" />
    </linearGradient>
    <linearGradient
       id="lG05"
       osb:paint="solid">
      <stop
         style="stop-color:#b3b3b3;stop-opacity:1;"
         offset="0"
         id="lG05-stop" />
    </linearGradient>
  </defs>
  <sodipodi:namedview
     id="base"
     pagecolor="#ffffff"
     bordercolor="#666666"
     borderopacity="1.0"
     inkscape:pageopacity="0.0"
     inkscape:pageshadow="2"
     inkscape:zoom="11.313708"
     inkscape:cx="30.1188"
     inkscape:cy="41.04752"
     inkscape:document-units="px"
     inkscape:current-layer="layer1"
     showgrid="false"
     units="px"
     inkscape:window-width="1920"
     inkscape:window-height="1012"
     inkscape:window-x="0"
     inkscape:window-y="0"
     inkscape:window-maximized="1"
     showguides="false" />
  <metadata
     id="metadata">
    <rdf:RDF>
      <cc:Work
         rdf:about="">
        <dc:format>image/svg+xml</dc:format>
        <dc:type
           rdf:resource="http://purl.org/dc/dcmitype/StillImage" />
        <dc:title>Array Input Method</dc:title>
        <cc:license
           rdf:resource="http://creativecommons.org/licenses/by-sa/4.0/" />
        <dc:creator>
          <cc:Agent>
            <dc:title>kogiokka</dc:title>
          </cc:Agent>
        </dc:creator>
      </cc:Work>
      <cc:License
         rdf:about="http://creativecommons.org/licenses/by-sa/4.0/">
        <cc:permits
           rdf:resource="http://creativecommons.org/ns#Reproduction" />
        <cc:permits
           rdf:resource="http://creativecommons.org/ns#Distribution" />
        <cc:requires
           rdf:resource="http://creativecommons.org/ns#Notice" />
        <cc:requires
           rdf:resource="http://creativecommons.org/ns#Attribution" />
        <cc:permits
           rdf:resource="http://creativecommons.org/ns#DerivativeWorks" />
        <cc:requires
           rdf:resource="http://creativecommons.org/ns#ShareAlike" />
      </cc:License>
    </rdf:RDF>
  </metadata>
  <g
     inkscape:label="Layer 1"
     inkscape:groupmode="layer"
     id="layer1"
     transform="translate(0,-280.06665)">
    <path
       style="font-style:normal;font-variant:normal;font-weight:normal;font-stretch:normal;font-size:17.31188583px;line-height:1.25;font-family:'Noto Sans CJK TC';-inkscape-font-specification:'Noto Sans CJK TC, Normal';font-variant-ligatures:normal;font-variant-caps:normal;font-variant-numeric:normal;font-feature-settings:normal;text-align:start;writing-mode:lr-tb;text-anchor:start;fill:url(#lG02);stroke:none;"       d="m 35.083984,2 v 11.320312 c 0,4.187566 1.701075,5.167969 7.720704,5.167969 h 11.582031 c 4.514721,0 5.82226,-1.373935 6.214843,-6.542969 -1.177753,-0.196157 -2.813461,-0.718722 -3.794921,-1.242187 -0.261733,3.860409 -0.719693,4.449219 -2.878907,4.449219 H 43.263672 c -3.009816,0 -3.533203,-0.261902 -3.533203,-1.832032 V 9.5898438 H 57.460938 V 6.1875 H 39.730469 V 2 Z"
       transform="matrix(0.26458334,0,0,0.26458334,0,280.06665)"
       id="path5043" />
    <path
       style="font-style:normal;font-variant:normal;font-weight:normal;font-stretch:normal;font-size:17.31188583px;line-height:1.25;font-family:'Noto Sans CJK TC';-inkscape-font-specification:'Noto Sans CJK TC, Normal';font-variant-ligatures:normal;font-variant-caps:normal;font-variant-numeric:normal;font-feature-settings:normal;text-align:start;writing-mode:lr-tb;text-anchor:start;fill:url(#lG01);stroke:none;"       d="M 22.457031,2.1308594 V 6.1230469 H 4.59375 V 9.5898438 H 22.457031 V 14.039062 C 15.194218,14.693374 8.3897282,15.217766 3.4824219,15.544922 L 3.875,19.273438 c 7.262813,-0.719736 17.272301,-1.701144 27.152344,-2.617188 v -3.271484 l -3.925782,0.328125 V 2.1308594 Z"
       transform="matrix(0.26458334,0,0,0.26458334,0,280.06665)"
       id="path5041" />
    <path
       style="font-style:normal;font-variant:normal;font-weight:normal;font-stretch:normal;font-size:17.31188583px;line-height:1.25;font-family:'Noto Sans CJK TC';-inkscape-font-specification:'Noto Sans CJK TC, Normal';font-variant-ligatures:normal;font-variant-caps:normal;font-variant-numeric:normal;font-feature-settings:normal;text-align:start;writing-mode:lr-tb;text-anchor:start;fill:url(#lG03);stroke:none;"       d="M 10.089844 20.451172 L 10.089844 37.136719 L 54.125 37.136719 L 54.125 20.451172 L 10.089844 20.451172 z M 14.669922 23.591797 L 29.587891 23.591797 L 29.587891 27.255859 L 14.669922 27.255859 L 14.669922 23.591797 z M 34.167969 23.591797 L 49.414062 23.591797 L 49.414062 27.255859 L 34.167969 27.255859 L 34.167969 23.591797 z M 14.669922 30.265625 L 29.587891 30.265625 L 29.587891 33.996094 L 14.669922 33.996094 L 14.669922 30.265625 z M 34.167969 30.265625 L 49.414062 30.265625 L 49.414062 33.996094 L 34.167969 33.996094 L 34.167969 30.265625 z "
       transform="matrix(0.26458334,0,0,0.26458334,0,280.06665)"
       id="path5039" />
    <path
       style="font-style:normal;font-variant:normal;font-weight:normal;font-stretch:normal;font-size:17.31188583px;line-height:1.25;font-family:'Noto Sans CJK TC';-inkscape-font-specification:'Noto Sans CJK TC, Normal';font-variant-ligatures:normal;font-variant-caps:normal;font-variant-numeric:normal;font-feature-settings:normal;text-align:start;writing-mode:lr-tb;text-anchor:start;fill:url(#lG05);stroke:none;"       d="M 18.269531 38.052734 L 18.269531 41.193359 L 5.3144531 41.193359 L 5.3144531 44.464844 L 18.269531 44.464844 L 18.269531 48.978516 L 2.5 48.978516 L 2.5 52.447266 L 22.326172 52.447266 L 22.585938 52.296875 L 22.849609 52.447266 L 39.3125 52.447266 L 39.992188 52.447266 L 41.728516 52.447266 L 61.453125 52.447266 L 61.453125 48.978516 L 45.421875 48.978516 L 45.421875 44.464844 L 58.507812 44.464844 L 58.507812 41.193359 L 45.421875 41.193359 L 45.421875 38.052734 L 40.710938 38.052734 L 40.710938 41.193359 L 22.914062 41.193359 L 22.914062 38.052734 L 18.269531 38.052734 z M 22.914062 44.464844 L 40.710938 44.464844 L 40.710938 48.978516 L 22.914062 48.978516 L 22.914062 44.464844 z "
       transform="matrix(0.26458334,0,0,0.26458334,0,280.06665)"
       id="path5029" />
    <path
       style="font-style:normal;font-variant:normal;font-weight:normal;font-stretch:normal;font-size:17.31188583px;line-height:1.25;font-family:'Noto Sans CJK TC';-inkscape-font-specification:'Noto Sans CJK TC, Normal';font-variant-ligatures:normal;font-variant-caps:normal;font-variant-numeric:normal;font-feature-settings:normal;text-align:start;writing-mode:lr-tb;text-anchor:start;fill:url(#lG04);stroke:none;"       d="M 22.585938 52.296875 L 22.326172 52.447266 C 17.222573 54.802781 9.5665103 57.09275 3.1542969 58.466797 C 3.8740349 59.31738 5.1181566 61.214841 5.5761719 62 C 12.053816 60.233373 20.362214 57.223688 25.923828 54.148438 L 22.849609 52.447266 L 22.585938 52.296875 z M 39.992188 52.447266 L 38.552734 55.326172 C 46.077271 57.092799 53.665938 59.644485 58.376953 62 L 60.144531 58.792969 C 55.368085 56.502877 47.451293 54.083045 39.992188 52.447266 z "
       transform="matrix(0.26458334,0,0,0.26458334,0,280.06665)"
       id="path5027" />
  </g>
</svg>
