<?xml version="1.0" encoding="UTF-8" standalone="no"?>
<!-- Created with Inkscape (http://www.inkscape.org/) -->

<svg
   xmlns:osb="http://www.openswatchbook.org/uri/2009/osb"
   xmlns:dc="http://purl.org/dc/elements/1.1/"
   xmlns:cc="http://creativecommons.org/ns#"
   xmlns:rdf="http://www.w3.org/1999/02/22-rdf-syntax-ns#"
   xmlns:svg="http://www.w3.org/2000/svg"
   xmlns="http://www.w3.org/2000/svg"
   xmlns:sodipodi="http://sodipodi.sourceforge.net/DTD/sodipodi-0.dtd"
   xmlns:inkscape="http://www.inkscape.org/namespaces/inkscape"
   width="64"
   height="64"
   viewBox="0 0 16.933333 16.933334"
   version="1.1"
   id="svg"
   inkscape:version="0.92.4 (unknown)"
   sodipodi:docname="u5243.svg">
  <title
     id="title">Array Input Method</title>
  <defs
     id="colors">
    <linearGradient
       id="lG01"
       osb:paint="solid">
      <stop
         style="stop-color:#00988c;stop-opacity:1;"
         offset="0"
         id="lG01-stop" />
    </linearGradient>
    <linearGradient
       id="lG02"
       osb:paint="solid">
      <stop
         style="stop-color:#90dd90;stop-opacity:1;"
         offset="0"
         id="lG02-stop" />
    </linearGradient>
    <linearGradient
       id="lG03"
       osb:paint="solid">
      <stop
         style="stop-color:#ff9955;stop-opacity:1;"
         offset="0"
         id="lG03-stop" />
    </linearGradient>
    <linearGradient
       id="lG04"
       osb:paint="solid">
      <stop
         style="stop-color:#d35f5f;stop-opacity:1;"
         offset="0"
         id="lG04-stop" />
    </linearGradient>
    <linearGradient
       id="lG05"
       osb:paint="solid">
      <stop
         style="stop-color:#b3b3b3;stop-opacity:1;"
         offset="0"
         id="lG05-stop" />
    </linearGradient>
  </defs>
  <sodipodi:namedview
     id="base"
     pagecolor="#ffffff"
     bordercolor="#666666"
     borderopacity="1.0"
     inkscape:pageopacity="0.0"
     inkscape:pageshadow="2"
     inkscape:zoom="9.84375"
     inkscape:cx="7.6194023"
     inkscape:cy="29.528859"
     inkscape:document-units="px"
     inkscape:current-layer="layer1"
     showgrid="false"
     units="px"
     inkscape:window-width="1920"
     inkscape:window-height="1012"
     inkscape:window-x="0"
     inkscape:window-y="0"
     inkscape:window-maximized="1"
     showguides="false" />
  <metadata
     id="metadata">
    <rdf:RDF>
      <cc:Work
         rdf:about="">
        <dc:format>image/svg+xml</dc:format>
        <dc:type
           rdf:resource="http://purl.org/dc/dcmitype/StillImage" />
        <dc:title>Array Input Method</dc:title>
        <dc:creator>
          <cc:Agent>
            <dc:title>kogiokka</dc:title>
          </cc:Agent>
        </dc:creator>
        <cc:license
           rdf:resource="http://creativecommons.org/licenses/by-sa/4.0/" />
      </cc:Work>
      <cc:License
         rdf:about="http://creativecommons.org/licenses/by-sa/4.0/">
        <cc:permits
           rdf:resource="http://creativecommons.org/ns#Reproduction" />
        <cc:permits
           rdf:resource="http://creativecommons.org/ns#Distribution" />
        <cc:requires
           rdf:resource="http://creativecommons.org/ns#Notice" />
        <cc:requires
           rdf:resource="http://creativecommons.org/ns#Attribution" />
        <cc:permits
           rdf:resource="http://creativecommons.org/ns#DerivativeWorks" />
        <cc:requires
           rdf:resource="http://creativecommons.org/ns#ShareAlike" />
      </cc:License>
    </rdf:RDF>
  </metadata>
  <g
     inkscape:label="Layer 1"
     inkscape:groupmode="layer"
     id="layer1"
     transform="translate(0,0)">
    <path
       style="font-style:normal;font-variant:normal;font-weight:normal;font-stretch:normal;font-size:17.38773346px;line-height:1.25;font-family:'Noto Sans CJK TC';-inkscape-font-specification:'Noto Sans CJK TC, Normal';font-variant-ligatures:normal;font-variant-caps:normal;font-variant-numeric:normal;font-feature-settings:normal;text-align:start;writing-mode:lr-tb;text-anchor:start;fill:url(#lG01);fill-opacity:1;stroke:none;"
       d="M 30.40625 2 C 29.289054 5.0887187 27.384434 9.5570774 25.675781 12.580078 L 30.275391 12.580078 C 31.786891 9.8199469 33.495048 6.4688895 35.072266 3.3144531 L 30.40625 2 z M 14.240234 2.1972656 L 10.494141 3.7089844 C 12.268511 6.4033983 13.911987 9.8856642 14.832031 12.580078 L 17.263672 12.580078 L 19.037109 11.791016 C 18.314218 9.1623179 16.277474 5.1545497 14.240234 2.1972656 z "
       transform="scale(0.26458334)"
       id="path941" />
    <path
       style="font-style:normal;font-variant:normal;font-weight:normal;font-stretch:normal;font-size:17.38773346px;line-height:1.25;font-family:'Noto Sans CJK TC';-inkscape-font-specification:'Noto Sans CJK TC, Normal';font-variant-ligatures:normal;font-variant-caps:normal;font-variant-numeric:normal;font-feature-settings:normal;text-align:start;writing-mode:lr-tb;text-anchor:start;fill:url(#lG02);fill-opacity:1;stroke:none;"
       d="M 5.6308594 12.580078 L 5.6308594 16.787109 L 19.957031 16.787109 L 24.425781 16.787109 L 33.298828 16.787109 L 33.298828 24.804688 L 24.425781 24.804688 L 24.425781 28.943359 L 37.636719 28.943359 L 37.636719 12.580078 L 30.275391 12.580078 L 14.832031 12.580078 L 5.6308594 12.580078 z M 7.5371094 24.804688 C 7.4339618 26.111224 7.3012669 27.512798 7.1523438 28.943359 L 11.349609 28.943359 L 19.957031 28.943359 L 19.957031 24.804688 L 7.5371094 24.804688 z "
       transform="scale(0.26458334)"
       id="path939" />
    <path
       style="font-style:normal;font-variant:normal;font-weight:normal;font-stretch:normal;font-size:17.38773346px;line-height:1.25;font-family:'Noto Sans CJK TC';-inkscape-font-specification:'Noto Sans CJK TC, Normal';font-variant-ligatures:normal;font-variant-caps:normal;font-variant-numeric:normal;font-feature-settings:normal;text-align:start;writing-mode:lr-tb;text-anchor:start;fill:url(#lG04);fill-opacity:1;stroke:none;"
       d="M 56.167969 2.1972656 L 56.167969 55.494141 C 56.167969 56.545617 55.708995 56.873735 54.591797 56.939453 C 53.606036 57.005183 50.055638 57.00645 46.046875 56.875 C 46.638329 58.255064 47.362134 60.357525 47.625 61.671875 C 53.013831 61.737605 56.233556 61.540548 58.205078 60.751953 C 60.045164 59.897629 60.833984 58.516451 60.833984 55.427734 L 60.833984 2.1972656 L 56.167969 2.1972656 z M 44.339844 9.1640625 L 44.339844 45.175781 L 48.808594 45.175781 L 48.808594 9.1640625 L 44.339844 9.1640625 z "
       transform="scale(0.26458334)"
       id="path933" />
    <path
       style="font-style:normal;font-variant:normal;font-weight:normal;font-stretch:normal;font-size:17.38773346px;line-height:1.25;font-family:'Noto Sans CJK TC';-inkscape-font-specification:'Noto Sans CJK TC, Normal';font-variant-ligatures:normal;font-variant-caps:normal;font-variant-numeric:normal;font-feature-settings:normal;text-align:start;writing-mode:lr-tb;text-anchor:start;fill:url(#lG03);fill-opacity:1;stroke:none;"
       d="M 7.1523438 28.943359 C 6.7319749 32.981435 6.1646471 37.255353 5.6308594 40.3125 L 17.919922 40.3125 L 19.957031 40.3125 L 19.957031 36.173828 L 10.363281 36.173828 C 10.691868 33.939436 11.021023 31.374904 11.349609 28.943359 L 7.1523438 28.943359 z M 24.425781 36.173828 L 24.425781 40.3125 L 34.021484 40.3125 C 33.561462 47.541417 33.036081 50.432781 32.378906 51.287109 C 31.984602 51.812849 31.457842 51.878906 30.603516 51.878906 C 29.814907 51.878906 27.976004 51.814326 25.873047 51.617188 C 26.464504 52.800104 26.858799 54.639463 26.990234 56.019531 C 29.224626 56.150945 31.457711 56.150269 32.640625 55.953125 C 34.152125 55.821673 35.072141 55.428433 35.992188 54.376953 C 37.306536 52.865452 37.898088 48.593602 38.423828 38.144531 C 38.489558 37.487357 38.556641 36.173828 38.556641 36.173828 L 24.425781 36.173828 z "
       transform="scale(0.26458334)"
       id="path955" />
    <path
       style="font-style:normal;font-variant:normal;font-weight:normal;font-stretch:normal;font-size:17.38773346px;line-height:1.25;font-family:'Noto Sans CJK TC';-inkscape-font-specification:'Noto Sans CJK TC, Normal';font-variant-ligatures:normal;font-variant-caps:normal;font-variant-numeric:normal;font-feature-settings:normal;text-align:start;writing-mode:lr-tb;text-anchor:start;fill:url(#lG05);fill-opacity:1;stroke:none;"
       d="M 19.957031 16.787109 L 19.957031 40.3125 L 17.919922 40.3125 C 14.371181 45.898483 8.7194819 51.157149 3.1992188 53.851562 C 4.2506974 54.771615 5.6963412 56.347646 6.3535156 57.464844 C 11.282322 54.704711 16.211138 49.974077 19.957031 44.519531 L 19.957031 62 L 24.425781 62 L 24.425781 16.787109 L 19.957031 16.787109 z "
       transform="scale(0.26458334)"
       id="path927" />
  </g>
</svg>
