<?xml version="1.0" encoding="UTF-8" standalone="no"?>
<!-- Created with Inkscape (http://www.inkscape.org/) -->

<svg
   xmlns:osb="http://www.openswatchbook.org/uri/2009/osb"
   xmlns:dc="http://purl.org/dc/elements/1.1/"
   xmlns:cc="http://creativecommons.org/ns#"
   xmlns:rdf="http://www.w3.org/1999/02/22-rdf-syntax-ns#"
   xmlns:svg="http://www.w3.org/2000/svg"
   xmlns="http://www.w3.org/2000/svg"
   xmlns:sodipodi="http://sodipodi.sourceforge.net/DTD/sodipodi-0.dtd"
   xmlns:inkscape="http://www.inkscape.org/namespaces/inkscape"
   width="64"
   height="64"
   viewBox="0 0 16.933333 16.933334"
   version="1.1"
   id="svg"
   inkscape:version="0.92.4 (unknown)"
   sodipodi:docname="u528d.svg">
  <title
     id="title">Array Input Method</title>
  <defs
     id="colors">
    <linearGradient
       id="lG01"
       osb:paint="solid">
      <stop
         style="stop-color:#00988c;stop-opacity:1;"
         offset="0"
         id="lG01-stop" />
    </linearGradient>
    <linearGradient
       id="lG02"
       osb:paint="solid">
      <stop
         style="stop-color:#90dd90;stop-opacity:1;"
         offset="0"
         id="lG02-stop" />
    </linearGradient>
    <linearGradient
       id="lG03"
       osb:paint="solid">
      <stop
         style="stop-color:#ff9955;stop-opacity:1;"
         offset="0"
         id="lG03-stop" />
    </linearGradient>
    <linearGradient
       id="lG04"
       osb:paint="solid">
      <stop
         style="stop-color:#d35f5f;stop-opacity:1;"
         offset="0"
         id="lG04-stop" />
    </linearGradient>
    <linearGradient
       id="lG05"
       osb:paint="solid">
      <stop
         style="stop-color:#b3b3b3;stop-opacity:1;"
         offset="0"
         id="lG05-stop" />
    </linearGradient>
  </defs>
  <sodipodi:namedview
     id="base"
     pagecolor="#ffffff"
     bordercolor="#666666"
     borderopacity="1.0"
     inkscape:pageopacity="0.0"
     inkscape:pageshadow="2"
     inkscape:zoom="9.84375"
     inkscape:cx="20.780328"
     inkscape:cy="33.488907"
     inkscape:document-units="px"
     inkscape:current-layer="layer1"
     showgrid="false"
     units="px"
     inkscape:window-width="1920"
     inkscape:window-height="1012"
     inkscape:window-x="0"
     inkscape:window-y="0"
     inkscape:window-maximized="1"
     showguides="false" />
  <metadata
     id="metadata">
    <rdf:RDF>
      <cc:Work
         rdf:about="">
        <dc:format>image/svg+xml</dc:format>
        <dc:type
           rdf:resource="http://purl.org/dc/dcmitype/StillImage" />
        <dc:title>Array Input Method</dc:title>
        <dc:creator>
          <cc:Agent>
            <dc:title>kogiokka</dc:title>
          </cc:Agent>
        </dc:creator>
        <cc:license
           rdf:resource="http://creativecommons.org/licenses/by-sa/4.0/" />
      </cc:Work>
      <cc:License
         rdf:about="http://creativecommons.org/licenses/by-sa/4.0/">
        <cc:permits
           rdf:resource="http://creativecommons.org/ns#Reproduction" />
        <cc:permits
           rdf:resource="http://creativecommons.org/ns#Distribution" />
        <cc:requires
           rdf:resource="http://creativecommons.org/ns#Notice" />
        <cc:requires
           rdf:resource="http://creativecommons.org/ns#Attribution" />
        <cc:permits
           rdf:resource="http://creativecommons.org/ns#DerivativeWorks" />
        <cc:requires
           rdf:resource="http://creativecommons.org/ns#ShareAlike" />
      </cc:License>
    </rdf:RDF>
  </metadata>
  <g
     inkscape:label="Layer 1"
     inkscape:groupmode="layer"
     id="layer1"
     transform="translate(0,0)">
    <path
       style="font-style:normal;font-variant:normal;font-weight:normal;font-stretch:normal;font-size:17.25122452px;line-height:1.25;font-family:'Noto Sans CJK TC';-inkscape-font-specification:'Noto Sans CJK TC, Normal';font-variant-ligatures:normal;font-variant-caps:normal;font-variant-numeric:normal;font-feature-settings:normal;text-align:start;writing-mode:lr-tb;text-anchor:start;fill:url(#lG02);fill-opacity:1;stroke:none;"
       d="M 7.1171875 24.689453 L 7.1171875 40.273438 L 20.613281 40.273438 L 20.613281 24.689453 L 7.1171875 24.689453 z M 10.572266 28.210938 L 17.027344 28.210938 L 17.027344 36.751953 L 10.572266 36.751953 L 10.572266 28.210938 z "
       transform="scale(0.26458334)"
       id="path1455" />
    <path
       style="font-style:normal;font-variant:normal;font-weight:normal;font-stretch:normal;font-size:17.25122452px;line-height:1.25;font-family:'Noto Sans CJK TC';-inkscape-font-specification:'Noto Sans CJK TC, Normal';font-variant-ligatures:normal;font-variant-caps:normal;font-variant-numeric:normal;font-feature-settings:normal;text-align:start;writing-mode:lr-tb;text-anchor:start;fill:url(#lG03);fill-opacity:1;stroke:none;"
       d="M 24.003906 24.625 L 24.003906 40.337891 L 37.826172 40.337891 L 37.826172 24.625 L 24.003906 24.625 z M 27.394531 28.146484 L 34.304688 28.146484 L 34.304688 36.751953 L 27.394531 36.751953 L 27.394531 28.146484 z "
       transform="scale(0.26458334)"
       id="path1449" />
    <path
       style="font-style:normal;font-variant:normal;font-weight:normal;font-stretch:normal;font-size:17.25122452px;line-height:1.25;font-family:'Noto Sans CJK TC';-inkscape-font-specification:'Noto Sans CJK TC, Normal';font-variant-ligatures:normal;font-variant-caps:normal;font-variant-numeric:normal;font-feature-settings:normal;text-align:start;writing-mode:lr-tb;text-anchor:start;fill:url(#lG05);fill-opacity:1;stroke:none;"
       d="M 13.115234 42.099609 C 11.419996 48.684956 8.0289473 54.357734 3.4648438 58.074219 C 4.4428658 58.726233 6.0081413 60.028879 6.6601562 60.746094 C 9.3334168 58.398841 11.745128 55.269674 13.701172 51.683594 C 15.787619 53.313628 18.071262 55.335099 19.179688 56.769531 L 21.65625 53.509766 C 20.35222 52.010132 17.743737 49.85855 15.396484 48.228516 C 16.048499 46.533277 16.701044 44.772906 17.222656 42.947266 L 13.115234 42.099609 z M 29.349609 42.164062 C 27.915177 48.814614 24.851377 54.617957 20.613281 58.464844 C 21.591304 59.051657 23.28669 60.355051 24.003906 61.072266 C 26.35116 58.725013 28.502027 55.660299 30.197266 52.074219 C 32.870526 54.356271 35.740144 57.225595 37.109375 59.181641 L 39.912109 56.052734 C 38.282071 53.966288 34.826188 50.771081 31.761719 48.423828 C 32.478935 46.663385 33.000621 44.838107 33.457031 42.947266 L 29.349609 42.164062 z "
       transform="scale(0.26458334)"
       id="path1459" />
    <path
       style="font-style:normal;font-variant:normal;font-weight:normal;font-stretch:normal;font-size:17.25122452px;line-height:1.25;font-family:'Noto Sans CJK TC';-inkscape-font-specification:'Noto Sans CJK TC, Normal';font-variant-ligatures:normal;font-variant-caps:normal;font-variant-numeric:normal;font-feature-settings:normal;text-align:start;writing-mode:lr-tb;text-anchor:start;fill:url(#lG01);fill-opacity:1;stroke:none;"
       d="M 5.867936,0.52916769 C 4.8846162,2.0990291 2.9869815,3.703393 0.89958334,4.7729689 1.1583517,4.9454812 1.5551299,5.3595106 1.7448933,5.6010277 2.3486862,5.2732544 2.9352278,4.9109787 3.487267,4.5142006 V 5.4285155 H 8.6453831 V 4.393442 H 3.6597793 C 4.5223405,3.7723979 5.2986456,3.0650977 5.9714433,2.2887926 7.403295,3.168605 9.0594125,4.3589395 9.9219738,5.1524959 L 10.57752,4.1691761 C 9.7149591,3.392871 8.0415903,2.2887926 6.6269899,1.4607338 6.7649997,1.2882216 6.8857582,1.0984581 7.0065168,0.90869463 Z"
       id="path1447" />
    <path
       style="font-style:normal;font-variant:normal;font-weight:normal;font-stretch:normal;font-size:17.25122452px;line-height:1.25;font-family:'Noto Sans CJK TC';-inkscape-font-specification:'Noto Sans CJK TC, Normal';font-variant-ligatures:normal;font-variant-caps:normal;font-variant-numeric:normal;font-feature-settings:normal;text-align:start;writing-mode:lr-tb;text-anchor:start;fill:url(#lG04);fill-opacity:1;stroke:none;"
       d="M 56.148438 3.6953125 L 56.148438 55.986328 C 56.148438 57.159955 55.756863 57.485581 54.648438 57.550781 C 53.670413 57.550781 50.148873 57.616722 46.367188 57.486328 C 46.954001 58.790356 47.606385 60.6823 47.867188 61.986328 C 53.083306 62.051525 56.083021 61.921095 58.039062 61.138672 C 59.799506 60.356257 60.515625 58.985595 60.515625 55.986328 L 60.515625 3.6953125 L 56.148438 3.6953125 z M 43.238281 9.4980469 L 43.238281 45.359375 L 47.607422 45.359375 L 47.607422 9.4980469 L 43.238281 9.4980469 z "
       transform="scale(0.26458334)"
       id="path1445" />
  </g>
</svg>
