<?xml version="1.0" encoding="UTF-8" standalone="no"?>
<!-- Created with Inkscape (http://www.inkscape.org/) -->

<svg
   xmlns:osb="http://www.openswatchbook.org/uri/2009/osb"
   xmlns:dc="http://purl.org/dc/elements/1.1/"
   xmlns:cc="http://creativecommons.org/ns#"
   xmlns:rdf="http://www.w3.org/1999/02/22-rdf-syntax-ns#"
   xmlns:svg="http://www.w3.org/2000/svg"
   xmlns="http://www.w3.org/2000/svg"
   xmlns:sodipodi="http://sodipodi.sourceforge.net/DTD/sodipodi-0.dtd"
   xmlns:inkscape="http://www.inkscape.org/namespaces/inkscape"
   width="64"
   height="64"
   viewBox="0 0 16.933333 16.933334"
   version="1.1"
   id="svg8"
   inkscape:version="0.92.4 5da689c313, 2019-01-14"
   sodipodi:docname="u4ea5.svg">
  <title
     id="title">Array Input Method</title>
  <defs
     id="colors">
    <linearGradient
       id="lG01"
       osb:paint="solid">
      <stop
         style="stop-color:#00988c;stop-opacity:1;"
         offset="0"
         id="lG01-stop" />
    </linearGradient>
    <linearGradient
       id="lG02"
       osb:paint="solid">
      <stop
         style="stop-color:#90dd90;stop-opacity:1;"
         offset="0"
         id="lG02-stop" />
    </linearGradient>
    <linearGradient
       id="lG03"
       osb:paint="solid">
      <stop
         style="stop-color:#ff9955;stop-opacity:1;"
         offset="0"
         id="lG03-stop" />
    </linearGradient>
    <linearGradient
       id="lG04"
       osb:paint="solid">
      <stop
         style="stop-color:#d35f5f;stop-opacity:1;"
         offset="0"
         id="lG04-stop" />
    </linearGradient>
    <linearGradient
       id="lG05"
       osb:paint="solid">
      <stop
         style="stop-color:#b3b3b3;stop-opacity:1;"
         offset="0"
         id="lG05-stop" />
    </linearGradient>
  </defs>
  <sodipodi:namedview
     id="base"
     pagecolor="#ffffff"
     bordercolor="#666666"
     borderopacity="1.0"
     inkscape:pageopacity="0.0"
     inkscape:pageshadow="2"
     inkscape:zoom="11.313708"
     inkscape:cx="41.698379"
     inkscape:cy="29.418233"
     inkscape:document-units="px"
     inkscape:current-layer="layer1"
     showgrid="false"
     units="px"
     inkscape:window-width="1920"
     inkscape:window-height="1010"
     inkscape:window-x="0"
     inkscape:window-y="0"
     inkscape:window-maximized="1"
     showguides="false" />
  <metadata
     id="metadata">
    <rdf:RDF>
      <cc:Work
         rdf:about="">
        <dc:format>image/svg+xml</dc:format>
        <dc:type
           rdf:resource="http://purl.org/dc/dcmitype/StillImage" />
        <dc:title>Array Input Method</dc:title>
        <cc:license
           rdf:resource="http://creativecommons.org/licenses/by-sa/4.0/" />
        <dc:creator>
          <cc:Agent>
            <dc:title>kogiokka</dc:title>
          </cc:Agent>
        </dc:creator>
      </cc:Work>
      <cc:License
         rdf:about="http://creativecommons.org/licenses/by-sa/4.0/">
        <cc:permits
           rdf:resource="http://creativecommons.org/ns#Reproduction" />
        <cc:permits
           rdf:resource="http://creativecommons.org/ns#Distribution" />
        <cc:requires
           rdf:resource="http://creativecommons.org/ns#Notice" />
        <cc:requires
           rdf:resource="http://creativecommons.org/ns#Attribution" />
        <cc:permits
           rdf:resource="http://creativecommons.org/ns#DerivativeWorks" />
        <cc:requires
           rdf:resource="http://creativecommons.org/ns#ShareAlike" />
      </cc:License>
    </rdf:RDF>
  </metadata>
  <g
     inkscape:label="Layer 1"
     inkscape:groupmode="layer"
     id="layer1"
     transform="translate(0,-280.06666)">
    <path
       style="font-style:normal;font-variant:normal;font-weight:normal;font-stretch:normal;font-size:17.29302788px;line-height:1.25;font-family:'Noto Sans CJK TC';-inkscape-font-specification:'Noto Sans CJK TC';letter-spacing:0px;word-spacing:0px;fill:url(#lG01);fill-opacity:1;stroke:none;"
       d="m 8.3679649,280.59583 -1.2624552,0.38033 c 0.3631533,0.60526 0.7782674,1.36645 1.0376628,1.95441 H 0.79375001 v 1.24488 H 6.293156 7.9530032 16.046049 v -1.24488 H 9.3363812 l 0.311609,-0.10387 c -0.2421024,-0.60526 -0.7958206,-1.55645 -1.2800253,-2.23087 z"
       id="path2244"
       inkscape:connector-curvature="0" />
    <path
       style="font-style:normal;font-variant:normal;font-weight:normal;font-stretch:normal;font-size:17.29302788px;line-height:1.25;font-family:'Noto Sans CJK TC';-inkscape-font-specification:'Noto Sans CJK TC';letter-spacing:0px;word-spacing:0px;fill:url(#lG02);fill-opacity:1;stroke:none;"
       d="m 6.293156,284.17545 c -0.3559185,0.41287 -0.7729839,0.8802 -1.174605,1.32085 -0.574058,0.62984 -1.113509,1.19762 -1.367875,1.41129 -0.380447,0.32857 -0.847311,0.46723 -1.158586,0.5364 0.121051,0.27669 0.311646,1.00261 0.346232,1.33118 0.415033,-0.13835 1.072188,-0.2246 5.5510827,-0.53588 -1.9886986,1.52179 -4.5139737,2.68043 -7.1943937,3.38945 0.311275,0.32857 0.64018,0.81301 0.795818,1.17616 4.3059635,-1.29697 8.127463,-3.61461 10.34097,-6.83111 l -1.175638,-0.58756 c -0.380448,0.55338 -0.830204,1.08911 -1.3317017,1.5906 L 5.22087,287.21919 c 0.472813,-0.49211 1.0083815,-1.07602 1.5353069,-1.66708 0.4174117,-0.46821 0.8299246,-0.94096 1.1968263,-1.37666 z"
       id="path2240"
       inkscape:connector-curvature="0" />
    <path
       style="font-style:normal;font-variant:normal;font-weight:normal;font-stretch:normal;font-size:17.29302788px;line-height:1.25;font-family:'Noto Sans CJK TC';-inkscape-font-specification:'Noto Sans CJK TC';letter-spacing:0px;word-spacing:0px;fill:url(#lG03);fill-opacity:1;stroke:none;"
       d="m 13.487032,287.73803 c -2.472903,3.76988 -7.107634,6.2599 -12.69328199,7.53959 0.31127499,0.32856 0.62260999,0.84734 0.77824699,1.19321 3.060866,-0.7436 5.8277339,-1.86791 8.1622929,-3.37241 1.7638881,1.03759 3.7696361,2.38663 4.8245111,3.30316 l 1.141533,-0.91622 c -1.106754,-0.89923 -3.130072,-2.17921 -4.842082,-3.14762 1.504493,-1.14134 2.8017,-2.43814 3.821989,-3.92534 z"
       id="path2226"
       inkscape:connector-curvature="0" />
  </g>
</svg>
