<?xml version="1.0" encoding="UTF-8" standalone="no"?>
<!-- Created with Inkscape (http://www.inkscape.org/) -->

<svg
   xmlns:osb="http://www.openswatchbook.org/uri/2009/osb"
   xmlns:dc="http://purl.org/dc/elements/1.1/"
   xmlns:cc="http://creativecommons.org/ns#"
   xmlns:rdf="http://www.w3.org/1999/02/22-rdf-syntax-ns#"
   xmlns:svg="http://www.w3.org/2000/svg"
   xmlns="http://www.w3.org/2000/svg"
   xmlns:sodipodi="http://sodipodi.sourceforge.net/DTD/sodipodi-0.dtd"
   xmlns:inkscape="http://www.inkscape.org/namespaces/inkscape"
   width="64"
   height="64"
   viewBox="0 0 16.933333 16.933334"
   version="1.1"
   id="svg8"
   inkscape:version="0.92.4 5da689c313, 2019-01-14"
   sodipodi:docname="u4f0a.svg">
  <title
     id="title">Array Input Method</title>
  <defs
     id="colors">
    <linearGradient
       id="lG01"
       osb:paint="solid">
      <stop
         style="stop-color:#00988c;stop-opacity:1;"
         offset="0"
         id="lG01-stop" />
    </linearGradient>
    <linearGradient
       id="lG02"
       osb:paint="solid">
      <stop
         style="stop-color:#90dd90;stop-opacity:1;"
         offset="0"
         id="lG02-stop" />
    </linearGradient>
    <linearGradient
       id="lG03"
       osb:paint="solid">
      <stop
         style="stop-color:#ff9955;stop-opacity:1;"
         offset="0"
         id="lG03-stop" />
    </linearGradient>
    <linearGradient
       id="lG04"
       osb:paint="solid">
      <stop
         style="stop-color:#d35f5f;stop-opacity:1;"
         offset="0"
         id="lG04-stop" />
    </linearGradient>
    <linearGradient
       id="lG05"
       osb:paint="solid">
      <stop
         style="stop-color:#b3b3b3;stop-opacity:1;"
         offset="0"
         id="lG05-stop" />
    </linearGradient>
  </defs>
  <sodipodi:namedview
     id="base"
     pagecolor="#ffffff"
     bordercolor="#666666"
     borderopacity="1.0"
     inkscape:pageopacity="0.0"
     inkscape:pageshadow="2"
     inkscape:zoom="8.8317641"
     inkscape:cx="18.440376"
     inkscape:cy="29.777203"
     inkscape:document-units="px"
     inkscape:current-layer="layer1"
     showgrid="false"
     units="px"
     inkscape:window-width="1920"
     inkscape:window-height="1010"
     inkscape:window-x="0"
     inkscape:window-y="0"
     inkscape:window-maximized="1"
     showguides="false" />
  <metadata
     id="metadata">
    <rdf:RDF>
      <cc:Work
         rdf:about="">
        <dc:format>image/svg+xml</dc:format>
        <dc:type
           rdf:resource="http://purl.org/dc/dcmitype/StillImage" />
        <dc:title>Array Input Method</dc:title>
        <dc:creator>
          <cc:Agent>
            <dc:title>kogiokka</dc:title>
          </cc:Agent>
        </dc:creator>
        <cc:license
           rdf:resource="http://creativecommons.org/licenses/by-sa/4.0/" />
      </cc:Work>
      <cc:License
         rdf:about="http://creativecommons.org/licenses/by-sa/4.0/">
        <cc:permits
           rdf:resource="http://creativecommons.org/ns#Reproduction" />
        <cc:permits
           rdf:resource="http://creativecommons.org/ns#Distribution" />
        <cc:requires
           rdf:resource="http://creativecommons.org/ns#Notice" />
        <cc:requires
           rdf:resource="http://creativecommons.org/ns#Attribution" />
        <cc:permits
           rdf:resource="http://creativecommons.org/ns#DerivativeWorks" />
        <cc:requires
           rdf:resource="http://creativecommons.org/ns#ShareAlike" />
      </cc:License>
    </rdf:RDF>
  </metadata>
  <g
     inkscape:label="Layer 1"
     inkscape:groupmode="layer"
     id="layer1"
     transform="translate(0,-280.06665)">
    <path
       style="font-style:normal;font-variant:normal;font-weight:normal;font-stretch:normal;font-size:16.99678802px;line-height:1.25;font-family:'Noto Sans CJK TC';-inkscape-font-specification:'Noto Sans CJK TC';text-align:start;text-anchor:start;fill:url(#lG01);fill-opacity:1;stroke:none;"
       d="M 18.445312,2.8496094 C 14.719402,12.614057 8.488223,22.057391 2,28.160156 c 0.8993576,1.092095 2.2475865,3.597359 2.6972656,4.689453 2.4411135,-2.441121 4.8824657,-5.268475 7.1308594,-8.480468 v 36.9375 h 4.5625 V 17.496094 c 2.505353,-4.239836 4.687826,-8.6733548 6.550781,-13.2343752 z"
       transform="matrix(0.26458334,0,0,0.26458334,0,280.06665)"
       id="path1116" />
    <path
       style="font-style:normal;font-variant:normal;font-weight:normal;font-stretch:normal;font-size:16.99678802px;line-height:1.25;font-family:'Noto Sans CJK TC';-inkscape-font-specification:'Noto Sans CJK TC';text-align:start;text-anchor:start;fill:url(#lG02);fill-opacity:1;stroke:none;"
       d="M 23.841797 7.0898438 L 23.841797 11.585938 L 35.148438 11.585938 L 39.837891 11.585938 L 52.621094 11.585938 L 52.621094 22.056641 L 39.837891 22.056641 L 39.837891 26.490234 L 52.621094 26.490234 L 52.621094 37.152344 L 39.451172 37.152344 L 38.681641 41.585938 L 52.621094 41.585938 L 52.621094 44.925781 L 57.246094 44.925781 L 57.246094 26.490234 L 62 26.490234 L 62 22.056641 L 57.246094 22.056641 L 57.246094 7.0898438 L 44.664062 7.0898438 L 32.65625 7.0898438 L 23.841797 7.0898438 z M 19.345703 22.056641 L 19.345703 26.490234 L 35.148438 26.490234 L 35.148438 22.056641 L 19.345703 22.056641 z M 22.941406 37.152344 L 22.941406 41.585938 L 33.927734 41.585938 L 34.761719 37.152344 L 22.941406 37.152344 z "
       transform="matrix(0.26458334,0,0,0.26458334,0,280.06665)"
       id="path1114" />
    <path
       style="font-style:normal;font-variant:normal;font-weight:normal;font-stretch:normal;font-size:16.99678802px;line-height:1.25;font-family:'Noto Sans CJK TC';-inkscape-font-specification:'Noto Sans CJK TC';text-align:start;text-anchor:start;fill:url(#lG03);fill-opacity:1;stroke:none;"
       d="M 35.148438 11.585938 L 35.148438 22.056641 L 35.148438 26.490234 L 35.148438 29.701172 C 35.148438 32.078079 35.082918 34.582756 34.761719 37.152344 L 33.927734 41.585938 C 32.321739 47.817207 28.403092 53.790773 19.216797 57.837891 C 20.308874 58.801481 21.720883 60.472195 22.363281 61.5 C 32.705893 56.425077 37.011404 49.166233 38.681641 41.585938 L 39.451172 37.152344 C 39.772356 34.647008 39.837891 32.078079 39.837891 29.701172 L 39.837891 26.490234 L 39.837891 22.056641 L 39.837891 11.585938 L 35.148438 11.585938 z "
       transform="matrix(0.26458334,0,0,0.26458334,0,280.06665)"
       id="path1112" />
  </g>
</svg>
