<?xml version="1.0" encoding="UTF-8" standalone="no"?>
<!-- Created with Inkscape (http://www.inkscape.org/) -->

<svg
   xmlns:osb="http://www.openswatchbook.org/uri/2009/osb"
   xmlns:dc="http://purl.org/dc/elements/1.1/"
   xmlns:cc="http://creativecommons.org/ns#"
   xmlns:rdf="http://www.w3.org/1999/02/22-rdf-syntax-ns#"
   xmlns:svg="http://www.w3.org/2000/svg"
   xmlns="http://www.w3.org/2000/svg"
   xmlns:sodipodi="http://sodipodi.sourceforge.net/DTD/sodipodi-0.dtd"
   xmlns:inkscape="http://www.inkscape.org/namespaces/inkscape"
   width="64"
   height="64"
   viewBox="0 0 16.933333 16.933334"
   version="1.1"
   id="svg8"
   inkscape:version="0.92.4 5da689c313, 2019-01-14"
   sodipodi:docname="u4f8f.svg">
  <title
     id="title">Array Input Method</title>
  <defs
     id="colors">
    <linearGradient
       id="lG01"
       osb:paint="solid">
      <stop
         style="stop-color:#00988c;stop-opacity:1;"
         offset="0"
         id="lG01-stop" />
    </linearGradient>
    <linearGradient
       id="lG02"
       osb:paint="solid">
      <stop
         style="stop-color:#90dd90;stop-opacity:1;"
         offset="0"
         id="lG02-stop" />
    </linearGradient>
    <linearGradient
       id="lG03"
       osb:paint="solid">
      <stop
         style="stop-color:#ff9955;stop-opacity:1;"
         offset="0"
         id="lG03-stop" />
    </linearGradient>
    <linearGradient
       id="lG04"
       osb:paint="solid">
      <stop
         style="stop-color:#d35f5f;stop-opacity:1;"
         offset="0"
         id="lG04-stop" />
    </linearGradient>
    <linearGradient
       id="lG05"
       osb:paint="solid">
      <stop
         style="stop-color:#b3b3b3;stop-opacity:1;"
         offset="0"
         id="lG05-stop" />
    </linearGradient>
  </defs>
  <sodipodi:namedview
     id="base"
     pagecolor="#ffffff"
     bordercolor="#666666"
     borderopacity="1.0"
     inkscape:pageopacity="0.0"
     inkscape:pageshadow="2"
     inkscape:zoom="11.313708"
     inkscape:cx="20.110484"
     inkscape:cy="29.982658"
     inkscape:document-units="px"
     inkscape:current-layer="layer1"
     showgrid="false"
     units="px"
     inkscape:window-width="1920"
     inkscape:window-height="1010"
     inkscape:window-x="0"
     inkscape:window-y="0"
     inkscape:window-maximized="1" />
  <metadata
     id="metadata">
    <rdf:RDF>
      <cc:Work
         rdf:about="">
        <dc:format>image/svg+xml</dc:format>
        <dc:type
           rdf:resource="http://purl.org/dc/dcmitype/StillImage" />
        <dc:title>Array Input Method</dc:title>
        <cc:license
           rdf:resource="http://creativecommons.org/licenses/by-sa/4.0/" />
        <dc:creator>
          <cc:Agent>
            <dc:title>kogiokka</dc:title>
          </cc:Agent>
        </dc:creator>
      </cc:Work>
      <cc:License
         rdf:about="http://creativecommons.org/licenses/by-sa/4.0/">
        <cc:permits
           rdf:resource="http://creativecommons.org/ns#Reproduction" />
        <cc:permits
           rdf:resource="http://creativecommons.org/ns#Distribution" />
        <cc:requires
           rdf:resource="http://creativecommons.org/ns#Notice" />
        <cc:requires
           rdf:resource="http://creativecommons.org/ns#Attribution" />
        <cc:permits
           rdf:resource="http://creativecommons.org/ns#DerivativeWorks" />
        <cc:requires
           rdf:resource="http://creativecommons.org/ns#ShareAlike" />
      </cc:License>
    </rdf:RDF>
  </metadata>
  <g
     inkscape:label="Layer 1"
     inkscape:groupmode="layer"
     id="layer1"
     transform="translate(0,-280.06665)">
    <path
       style="font-style:normal;font-variant:normal;font-weight:normal;font-stretch:normal;font-size:16.90628433px;line-height:1.25;font-family:'Noto Sans CJK TC';-inkscape-font-specification:'Noto Sans CJK TC';text-align:start;text-anchor:start;fill:url(#lG03);fill-opacity:1;stroke:none;"
       d="M 37.462891 3.8535156 L 37.462891 14.84375 L 37.462891 19.316406 L 37.462891 30.371094 L 18.804688 30.371094 L 18.804688 34.84375 L 34.779297 34.84375 C 30.498147 42.703164 23.724603 50.370368 17.207031 54.332031 C 18.229396 55.162696 19.700579 56.951377 20.53125 58.101562 C 26.729333 53.756504 33.053945 46.472154 37.462891 38.548828 L 37.462891 62 L 42.126953 62 L 42.126953 38.101562 C 46.472004 45.960978 52.670787 53.500683 58.613281 57.845703 C 59.316156 56.695555 60.849841 55.035201 62 54.140625 C 55.738018 50.11505 49.157263 42.575378 45.003906 34.84375 L 60.146484 34.84375 L 60.146484 30.371094 L 42.126953 30.371094 L 42.126953 19.316406 L 42.126953 14.84375 L 42.126953 3.8535156 L 37.462891 3.8535156 z "
       transform="matrix(0.26458334,0,0,0.26458334,0,280.06665)"
       id="path8735" />
    <path
       style="font-style:normal;font-variant:normal;font-weight:normal;font-stretch:normal;font-size:16.90628433px;line-height:1.25;font-family:'Noto Sans CJK TC';-inkscape-font-specification:'Noto Sans CJK TC';text-align:start;text-anchor:start;fill:url(#lG02);fill-opacity:1;stroke:none;"
       d="M 27.367188 5.578125 C 25.578049 13.245879 22.703007 20.913 18.869141 25.960938 C 20.019301 26.408207 22.12747 27.495799 23.085938 28.134766 C 24.747279 25.706646 26.344249 22.703014 27.75 19.316406 L 37.462891 19.316406 L 37.462891 14.84375 L 29.476562 14.84375 C 30.371132 12.160059 31.201422 9.3485865 31.904297 6.5371094 L 27.367188 5.578125 z M 42.126953 14.84375 L 42.126953 19.316406 L 58.166016 19.316406 L 58.166016 14.84375 L 42.126953 14.84375 z "
       transform="matrix(0.26458334,0,0,0.26458334,0,280.06665)"
       id="path8733" />
    <path
       style="font-style:normal;font-variant:normal;font-weight:normal;font-stretch:normal;font-size:16.90628433px;line-height:1.25;font-family:'Noto Sans CJK TC';-inkscape-font-specification:'Noto Sans CJK TC';text-align:start;text-anchor:start;fill:url(#lG01);fill-opacity:1;stroke:none;"
       d="M 16.503906,3.9160156 C 13.181222,13.564582 7.8146966,23.150983 2,29.285156 2.7667732,30.37143 4.2368646,32.799071 4.7480469,33.949219 6.5371845,31.904494 8.3899946,29.475827 10.115234,26.919922 V 62 h 4.53711 V 19.507812 c 2.428115,-4.536718 4.600932,-9.391807 6.326172,-14.2480464 z"
       transform="matrix(0.26458334,0,0,0.26458334,0,280.06665)"
       id="path8718" />
  </g>
</svg>
