<?xml version="1.0" encoding="UTF-8" standalone="no"?>
<!-- Created with Inkscape (http://www.inkscape.org/) -->

<svg
   xmlns:osb="http://www.openswatchbook.org/uri/2009/osb"
   xmlns:dc="http://purl.org/dc/elements/1.1/"
   xmlns:cc="http://creativecommons.org/ns#"
   xmlns:rdf="http://www.w3.org/1999/02/22-rdf-syntax-ns#"
   xmlns:svg="http://www.w3.org/2000/svg"
   xmlns="http://www.w3.org/2000/svg"
   xmlns:sodipodi="http://sodipodi.sourceforge.net/DTD/sodipodi-0.dtd"
   xmlns:inkscape="http://www.inkscape.org/namespaces/inkscape"
   width="64"
   height="64"
   viewBox="0 0 16.933333 16.933334"
   version="1.1"
   id="svg8"
   inkscape:version="0.92.4 (unknown)"
   sodipodi:docname="u51cd.svg">
  <title
     id="title">Array Input Method</title>
  <defs
     id="colors">
    <linearGradient
       id="lG01"
       osb:paint="solid">
      <stop
         style="stop-color:#00988c;stop-opacity:1;"
         offset="0"
         id="lG01-stop" />
    </linearGradient>
    <linearGradient
       id="lG02"
       osb:paint="solid">
      <stop
         style="stop-color:#90dd90;stop-opacity:1;"
         offset="0"
         id="lG02-stop" />
    </linearGradient>
    <linearGradient
       id="lG03"
       osb:paint="solid">
      <stop
         style="stop-color:#ff9955;stop-opacity:1;"
         offset="0"
         id="lG03-stop" />
    </linearGradient>
    <linearGradient
       id="lG04"
       osb:paint="solid">
      <stop
         style="stop-color:#d35f5f;stop-opacity:1;"
         offset="0"
         id="lG04-stop" />
    </linearGradient>
    <linearGradient
       id="lG05"
       osb:paint="solid">
      <stop
         style="stop-color:#b3b3b3;stop-opacity:1;"
         offset="0"
         id="lG05-stop" />
    </linearGradient>
  </defs>
  <sodipodi:namedview
     id="base"
     pagecolor="#ffffff"
     bordercolor="#666666"
     borderopacity="1.0"
     inkscape:pageopacity="0.0"
     inkscape:pageshadow="2"
     inkscape:zoom="11.313708"
     inkscape:cx="26.115921"
     inkscape:cy="35.214096"
     inkscape:document-units="px"
     inkscape:current-layer="layer1"
     showgrid="false"
     units="px"
     inkscape:window-width="1920"
     inkscape:window-height="1012"
     inkscape:window-x="0"
     inkscape:window-y="0"
     inkscape:window-maximized="1"
     showguides="false" />
  <metadata
     id="metadata">
    <rdf:RDF>
      <cc:Work
         rdf:about="">
        <dc:format>image/svg+xml</dc:format>
        <dc:type
           rdf:resource="http://purl.org/dc/dcmitype/StillImage" />
        <dc:title>Array Input Method</dc:title>
        <cc:license
           rdf:resource="http://creativecommons.org/licenses/by-sa/4.0/" />
        <dc:creator>
          <cc:Agent>
            <dc:title>kogiokka</dc:title>
          </cc:Agent>
        </dc:creator>
      </cc:Work>
      <cc:License
         rdf:about="http://creativecommons.org/licenses/by-sa/4.0/">
        <cc:permits
           rdf:resource="http://creativecommons.org/ns#Reproduction" />
        <cc:permits
           rdf:resource="http://creativecommons.org/ns#Distribution" />
        <cc:requires
           rdf:resource="http://creativecommons.org/ns#Notice" />
        <cc:requires
           rdf:resource="http://creativecommons.org/ns#Attribution" />
        <cc:permits
           rdf:resource="http://creativecommons.org/ns#DerivativeWorks" />
        <cc:requires
           rdf:resource="http://creativecommons.org/ns#ShareAlike" />
      </cc:License>
    </rdf:RDF>
  </metadata>
  <g
     inkscape:label="Layer 1"
     inkscape:groupmode="layer"
     id="layer1"
     transform="translate(0,-280.06665)">
    <path
       style="font-style:normal;font-variant:normal;font-weight:normal;font-stretch:normal;font-size:17.21800423px;line-height:1.25;font-family:'Noto Sans CJK TC';-inkscape-font-specification:'Noto Sans CJK TC, Normal';font-variant-ligatures:normal;font-variant-caps:normal;font-variant-numeric:normal;font-feature-settings:normal;text-align:start;writing-mode:lr-tb;text-anchor:start;fill:url(#lG02);stroke:none;"       d="M 36.816406 2.3007812 L 36.816406 8.6777344 L 17.8125 8.6777344 L 17.8125 13.039062 L 36.816406 13.039062 L 36.816406 18.503906 L 41.566406 18.503906 L 41.566406 13.039062 L 60.632812 13.039062 L 60.632812 8.6777344 L 41.566406 8.6777344 L 41.566406 2.3007812 L 36.816406 2.3007812 z M 33.041016 41.150391 C 28.420625 47.462769 20.937026 53.255178 13.84375 56.183594 C 14.884965 57.159732 16.316745 58.852083 17.097656 60.023438 C 24.386159 56.63951 31.870636 50.261865 36.816406 43.103516 L 36.816406 61.650391 L 41.566406 61.650391 L 41.566406 43.494141 C 45.991572 50.196944 52.563175 56.443532 58.615234 59.892578 C 59.331069 58.59106 60.893706 56.899967 62 55.923828 C 55.752709 52.995412 48.919391 47.202472 44.689453 41.150391 L 41.566406 41.150391 L 39.25 41.150391 L 36.816406 41.150391 L 33.041016 41.150391 z "
       transform="matrix(0.26458334,0,0,0.26458334,0,280.06665)"
       id="path4967" />
    <path
       style="font-style:normal;font-variant:normal;font-weight:normal;font-stretch:normal;font-size:17.21800423px;line-height:1.25;font-family:'Noto Sans CJK TC';-inkscape-font-specification:'Noto Sans CJK TC, Normal';font-variant-ligatures:normal;font-variant-caps:normal;font-variant-numeric:normal;font-feature-settings:normal;text-align:start;writing-mode:lr-tb;text-anchor:start;fill:url(#lG03);stroke:none;"       d="M 21.197266 18.503906 L 21.197266 41.150391 L 33.041016 41.150391 L 36.816406 41.150391 L 39.25 41.150391 L 41.566406 41.150391 L 44.689453 41.150391 L 57.705078 41.150391 L 57.705078 18.503906 L 41.566406 18.503906 L 36.816406 18.503906 L 21.197266 18.503906 z M 25.623047 22.214844 L 36.816406 22.214844 L 36.816406 28.005859 L 25.623047 28.005859 L 25.623047 22.214844 z M 41.566406 22.214844 L 53.150391 22.214844 L 53.150391 28.005859 L 41.566406 28.005859 L 41.566406 22.214844 z M 25.623047 31.583984 L 36.816406 31.583984 L 36.816406 37.376953 L 25.623047 37.376953 L 25.623047 31.583984 z M 41.566406 31.583984 L 53.150391 31.583984 L 53.150391 37.376953 L 41.566406 37.376953 L 41.566406 31.583984 z "
       transform="matrix(0.26458334,0,0,0.26458334,0,280.06665)"
       id="path4965" />
    <path
       style="font-style:normal;font-variant:normal;font-weight:normal;font-stretch:normal;font-size:17.21800423px;line-height:1.25;font-family:'Noto Sans CJK TC';-inkscape-font-specification:'Noto Sans CJK TC, Normal';font-variant-ligatures:normal;font-variant-caps:normal;font-variant-numeric:normal;font-feature-settings:normal;text-align:start;writing-mode:lr-tb;text-anchor:start;fill:url(#lG01);stroke:none;"       d="M 6.0351562 6.6601562 L 2.7167969 9.7851562 C 6.4912001 12.778655 10.915532 17.13736 12.802734 20.130859 L 16.316406 16.681641 C 14.299053 13.688141 9.8095601 9.5885722 6.0351562 6.6601562 z M 13.388672 31.259766 C 9.9396478 38.353032 5.2537962 46.486493 2 51.367188 L 6.1640625 54.492188 C 9.6781627 48.700438 13.844483 40.955488 17.033203 34.382812 L 13.388672 31.259766 z "
       transform="matrix(0.26458334,0,0,0.26458334,0,280.06665)"
       id="path4953" />
  </g>
</svg>
