<?xml version="1.0" encoding="UTF-8" standalone="no"?>
<!-- Created with Inkscape (http://www.inkscape.org/) -->

<svg
   xmlns:osb="http://www.openswatchbook.org/uri/2009/osb"
   xmlns:dc="http://purl.org/dc/elements/1.1/"
   xmlns:cc="http://creativecommons.org/ns#"
   xmlns:rdf="http://www.w3.org/1999/02/22-rdf-syntax-ns#"
   xmlns:svg="http://www.w3.org/2000/svg"
   xmlns="http://www.w3.org/2000/svg"
   xmlns:sodipodi="http://sodipodi.sourceforge.net/DTD/sodipodi-0.dtd"
   xmlns:inkscape="http://www.inkscape.org/namespaces/inkscape"
   width="64"
   height="64"
   viewBox="0 0 16.933333 16.933334"
   version="1.1"
   id="svg"
   inkscape:version="0.92.4 (unknown)"
   sodipodi:docname="u522a.svg">
  <title
     id="title">Array Input Method</title>
  <defs
     id="colors">
    <linearGradient
       id="lG01"
       osb:paint="solid">
      <stop
         style="stop-color:#00988c;stop-opacity:1;"
         offset="0"
         id="lG01-stop" />
    </linearGradient>
    <linearGradient
       id="lG02"
       osb:paint="solid">
      <stop
         style="stop-color:#90dd90;stop-opacity:1;"
         offset="0"
         id="lG02-stop" />
    </linearGradient>
    <linearGradient
       id="lG03"
       osb:paint="solid">
      <stop
         style="stop-color:#ff9955;stop-opacity:1;"
         offset="0"
         id="lG03-stop" />
    </linearGradient>
    <linearGradient
       id="lG04"
       osb:paint="solid">
      <stop
         style="stop-color:#d35f5f;stop-opacity:1;"
         offset="0"
         id="lG04-stop" />
    </linearGradient>
    <linearGradient
       id="lG05"
       osb:paint="solid">
      <stop
         style="stop-color:#b3b3b3;stop-opacity:1;"
         offset="0"
         id="lG05-stop" />
    </linearGradient>
  </defs>
  <sodipodi:namedview
     id="base"
     pagecolor="#ffffff"
     bordercolor="#666666"
     borderopacity="1.0"
     inkscape:pageopacity="0.0"
     inkscape:pageshadow="2"
     inkscape:zoom="9.84375"
     inkscape:cx="18.867257"
     inkscape:cy="28.929379"
     inkscape:document-units="px"
     inkscape:current-layer="layer1"
     showgrid="false"
     units="px"
     inkscape:window-width="1920"
     inkscape:window-height="1012"
     inkscape:window-x="0"
     inkscape:window-y="0"
     inkscape:window-maximized="1"
     showguides="false" />
  <metadata
     id="metadata">
    <rdf:RDF>
      <cc:Work
         rdf:about="">
        <dc:format>image/svg+xml</dc:format>
        <dc:type
           rdf:resource="http://purl.org/dc/dcmitype/StillImage" />
        <dc:title>Array Input Method</dc:title>
        <dc:creator>
          <cc:Agent>
            <dc:title>kogiokka</dc:title>
          </cc:Agent>
        </dc:creator>
        <cc:license
           rdf:resource="http://creativecommons.org/licenses/by-sa/4.0/" />
      </cc:Work>
      <cc:License
         rdf:about="http://creativecommons.org/licenses/by-sa/4.0/">
        <cc:permits
           rdf:resource="http://creativecommons.org/ns#Reproduction" />
        <cc:permits
           rdf:resource="http://creativecommons.org/ns#Distribution" />
        <cc:requires
           rdf:resource="http://creativecommons.org/ns#Notice" />
        <cc:requires
           rdf:resource="http://creativecommons.org/ns#Attribution" />
        <cc:permits
           rdf:resource="http://creativecommons.org/ns#DerivativeWorks" />
        <cc:requires
           rdf:resource="http://creativecommons.org/ns#ShareAlike" />
      </cc:License>
    </rdf:RDF>
  </metadata>
  <g
     inkscape:label="Layer 1"
     inkscape:groupmode="layer"
     id="layer1"
     transform="translate(0,0)">
    <path
       style="font-style:normal;font-variant:normal;font-weight:normal;font-stretch:normal;font-size:17.77715492px;line-height:1.25;font-family:'Noto Sans CJK TC';-inkscape-font-specification:'Noto Sans CJK TC, Normal';font-variant-ligatures:normal;font-variant-caps:normal;font-variant-numeric:normal;font-feature-settings:normal;text-align:start;writing-mode:lr-tb;text-anchor:start;fill:url(#lG03);fill-opacity:1;stroke:none;"
       d="M 56.685547 2 L 56.685547 55.550781 C 56.685547 56.625811 56.350405 56.960935 55.275391 56.960938 C 54.200364 57.028138 50.571189 57.0953 46.808594 56.960938 C 47.480484 58.304722 48.219138 60.588638 48.353516 61.865234 C 53.123952 61.865234 56.685109 61.732068 58.566406 60.925781 C 60.582085 60.11951 61.253906 58.64149 61.253906 55.550781 L 61.253906 2 L 56.685547 2 z M 44.457031 8.71875 L 44.457031 45.673828 L 48.824219 45.673828 L 48.824219 8.71875 L 44.457031 8.71875 z "
       transform="scale(0.26458334)"
       id="path1162" />
    <path
       style="font-style:normal;font-variant:normal;font-weight:normal;font-stretch:normal;font-size:17.77715492px;line-height:1.25;font-family:'Noto Sans CJK TC';-inkscape-font-specification:'Noto Sans CJK TC, Normal';font-variant-ligatures:normal;font-variant-caps:normal;font-variant-numeric:normal;font-feature-settings:normal;text-align:start;writing-mode:lr-tb;text-anchor:start;fill:url(#lG01);fill-opacity:1;stroke:none;"
       d="M 7.0996094 3.9492188 L 7.0996094 27.599609 L 11.333984 27.599609 L 11.333984 8.4492188 L 16.505859 8.4492188 L 20 8.4492188 L 25.308594 8.4492188 L 28.802734 8.4492188 L 34.3125 8.4492188 L 34.3125 27.599609 L 38.679688 27.599609 L 38.679688 3.9492188 L 7.0996094 3.9492188 z M 7.0996094 32.101562 L 7.0996094 62 L 11.333984 62 L 11.333984 32.101562 L 7.0996094 32.101562 z M 34.3125 32.101562 L 34.3125 56.625 C 34.3125 57.364083 34.10939 57.566406 33.4375 57.566406 C 32.832797 57.633606 31.153181 57.633606 29.070312 57.566406 C 29.742207 58.708625 30.415618 60.790208 30.617188 61.865234 C 33.640703 61.932434 35.521449 61.730503 36.865234 61.058594 C 38.276208 60.185134 38.679685 58.841462 38.679688 56.691406 L 38.679688 32.101562 L 34.3125 32.101562 z "
       transform="scale(0.26458334)"
       id="path1160" />
    <path
       style="font-style:normal;font-variant:normal;font-weight:normal;font-stretch:normal;font-size:17.77715492px;line-height:1.25;font-family:'Noto Sans CJK TC';-inkscape-font-specification:'Noto Sans CJK TC, Normal';font-variant-ligatures:normal;font-variant-caps:normal;font-variant-numeric:normal;font-feature-settings:normal;text-align:start;writing-mode:lr-tb;text-anchor:start;fill:url(#lG02);fill-opacity:1;stroke:none;"
       d="M 16.505859 8.4492188 L 16.505859 27.599609 L 2.8007812 27.599609 L 2.8007812 32.101562 L 16.505859 32.101562 L 16.505859 59.917969 L 20 59.917969 L 20 32.101562 L 25.308594 32.101562 L 25.308594 59.582031 L 28.802734 59.582031 L 28.802734 32.101562 L 42.777344 32.101562 L 42.777344 27.599609 L 28.802734 27.599609 L 28.802734 8.4492188 L 25.308594 8.4492188 L 25.308594 27.599609 L 20 27.599609 L 20 8.4492188 L 16.505859 8.4492188 z "
       transform="scale(0.26458334)"
       id="path1154" />
  </g>
</svg>
