<?xml version="1.0" encoding="UTF-8" standalone="no"?>
<!-- Created with Inkscape (http://www.inkscape.org/) -->

<svg
   xmlns:osb="http://www.openswatchbook.org/uri/2009/osb"
   xmlns:dc="http://purl.org/dc/elements/1.1/"
   xmlns:cc="http://creativecommons.org/ns#"
   xmlns:rdf="http://www.w3.org/1999/02/22-rdf-syntax-ns#"
   xmlns:svg="http://www.w3.org/2000/svg"
   xmlns="http://www.w3.org/2000/svg"
   xmlns:sodipodi="http://sodipodi.sourceforge.net/DTD/sodipodi-0.dtd"
   xmlns:inkscape="http://www.inkscape.org/namespaces/inkscape"
   width="64"
   height="64"
   viewBox="0 0 16.933333 16.933334"
   version="1.1"
   id="svg"
   inkscape:version="0.92.4 (unknown)"
   sodipodi:docname="u52ab.svg">
  <title
     id="title">Array Input Method</title>
  <defs
     id="colors">
    <linearGradient
       id="lG01"
       osb:paint="solid">
      <stop
         style="stop-color:#00988c;stop-opacity:1;"
         offset="0"
         id="lG01-stop" />
    </linearGradient>
    <linearGradient
       id="lG02"
       osb:paint="solid">
      <stop
         style="stop-color:#90dd90;stop-opacity:1;"
         offset="0"
         id="lG02-stop" />
    </linearGradient>
    <linearGradient
       id="lG03"
       osb:paint="solid">
      <stop
         style="stop-color:#ff9955;stop-opacity:1;"
         offset="0"
         id="lG03-stop" />
    </linearGradient>
    <linearGradient
       id="lG04"
       osb:paint="solid">
      <stop
         style="stop-color:#d35f5f;stop-opacity:1;"
         offset="0"
         id="lG04-stop" />
    </linearGradient>
    <linearGradient
       id="lG05"
       osb:paint="solid">
      <stop
         style="stop-color:#b3b3b3;stop-opacity:1;"
         offset="0"
         id="lG05-stop" />
    </linearGradient>
  </defs>
  <sodipodi:namedview
     id="base"
     pagecolor="#ffffff"
     bordercolor="#666666"
     borderopacity="1.0"
     inkscape:pageopacity="0.0"
     inkscape:pageshadow="2"
     inkscape:zoom="9.84375"
     inkscape:cx="21.748564"
     inkscape:cy="30.49894"
     inkscape:document-units="px"
     inkscape:current-layer="layer1"
     showgrid="false"
     units="px"
     inkscape:window-width="1920"
     inkscape:window-height="1012"
     inkscape:window-x="0"
     inkscape:window-y="0"
     inkscape:window-maximized="1"
     showguides="false" />
  <metadata
     id="metadata">
    <rdf:RDF>
      <cc:Work
         rdf:about="">
        <dc:format>image/svg+xml</dc:format>
        <dc:type
           rdf:resource="http://purl.org/dc/dcmitype/StillImage" />
        <dc:title>Array Input Method</dc:title>
        <dc:creator>
          <cc:Agent>
            <dc:title>kogiokka</dc:title>
          </cc:Agent>
        </dc:creator>
        <cc:license
           rdf:resource="http://creativecommons.org/licenses/by-sa/4.0/" />
      </cc:Work>
      <cc:License
         rdf:about="http://creativecommons.org/licenses/by-sa/4.0/">
        <cc:permits
           rdf:resource="http://creativecommons.org/ns#Reproduction" />
        <cc:permits
           rdf:resource="http://creativecommons.org/ns#Distribution" />
        <cc:requires
           rdf:resource="http://creativecommons.org/ns#Notice" />
        <cc:requires
           rdf:resource="http://creativecommons.org/ns#Attribution" />
        <cc:permits
           rdf:resource="http://creativecommons.org/ns#DerivativeWorks" />
        <cc:requires
           rdf:resource="http://creativecommons.org/ns#ShareAlike" />
      </cc:License>
    </rdf:RDF>
  </metadata>
  <g
     inkscape:label="Layer 1"
     inkscape:groupmode="layer"
     id="layer1"
     transform="translate(0,0)">
    <path
       style="font-style:normal;font-variant:normal;font-weight:normal;font-stretch:normal;font-size:17.33078575px;line-height:1.25;font-family:'Noto Sans CJK TC';-inkscape-font-specification:'Noto Sans CJK TC, Normal';font-variant-ligatures:normal;font-variant-caps:normal;font-variant-numeric:normal;font-feature-settings:normal;text-align:start;writing-mode:lr-tb;text-anchor:start;fill:url(#lG01);fill-opacity:1;stroke:none;"
       d="M 16.611328 2 L 16.611328 12.677734 L 5.4765625 12.677734 L 5.4765625 17.261719 L 16.611328 17.261719 L 16.611328 27.939453 L 3.3808594 27.939453 L 3.3808594 32.589844 L 14.515625 32.589844 L 19.755859 32.589844 L 34.099609 32.589844 L 34.099609 27.939453 L 21.392578 27.939453 L 21.392578 17.261719 L 31.939453 17.261719 L 31.939453 12.677734 L 21.392578 12.677734 L 21.392578 2 L 16.611328 2 z "
       transform="scale(0.26458334)"
       id="path905" />
    <path
       style="font-style:normal;font-variant:normal;font-weight:normal;font-stretch:normal;font-size:17.33078575px;line-height:1.25;font-family:'Noto Sans CJK TC';-inkscape-font-specification:'Noto Sans CJK TC, Normal';font-variant-ligatures:normal;font-variant-caps:normal;font-variant-numeric:normal;font-feature-settings:normal;text-align:start;writing-mode:lr-tb;text-anchor:start;fill:url(#lG02);fill-opacity:1;stroke:none;"
       d="m 19.755859,32.589844 h -5.240234 c -2.358079,6.681224 -5.7653694,13.165032 -6.8789062,14.933594 -1.2445418,2.096069 -2.2907601,3.603226 -3.4042969,3.865234 0.5895197,1.179039 1.3083039,3.536998 1.5703125,4.519531 1.5065503,-0.91703 3.9956506,-1.441253 22.9257816,-5.109375 0.393013,1.375544 0.720413,2.554429 0.982422,3.667969 l 4.324218,-1.898438 c -1.048035,-4.126635 -3.995906,-10.87325 -6.8125,-15.982421 l -3.929687,1.505859 c 1.375546,2.685592 2.750648,5.698887 3.929687,8.646484 L 11.4375,49.554688 c 3.013101,-4.912664 6.025783,-11.069648 8.318359,-16.964844 z"
       transform="scale(0.26458334)"
       id="path901" />
    <path
       style="font-style:normal;font-variant:normal;font-weight:normal;font-stretch:normal;font-size:17.33078575px;line-height:1.25;font-family:'Noto Sans CJK TC';-inkscape-font-specification:'Noto Sans CJK TC, Normal';font-variant-ligatures:normal;font-variant-caps:normal;font-variant-numeric:normal;font-feature-settings:normal;text-align:start;writing-mode:lr-tb;text-anchor:start;fill:url(#lG03);fill-opacity:1;stroke:none;"
       d="m 42.746094,2.3925781 c 0.0655,5.1091704 0.131905,9.8905059 0.06641,14.4101559 h -8.318359 v 4.585938 h 8.1875 C 42.026618,37.895222 39.339792,50.209326 30.5625,58.724609 31.741539,59.379632 33.969833,61.148472 34.755859,62 43.795158,52.174672 46.48065,39.270769 47.201172,21.388672 h 8.777344 C 55.323493,45.231466 54.5378,53.811373 53.03125,55.710938 c -0.589519,0.851527 -1.245986,1.048828 -2.228516,1.048828 -1.244541,0 -3.995616,-0.06522 -7.074218,-0.261719 0.786024,1.310045 1.31145,3.341249 1.376953,4.716797 3.0131,0.196497 5.961007,0.260951 7.664062,0.06445 1.899564,-0.261997 3.209633,-0.785226 4.388672,-2.488281 2.096069,-2.816595 2.751085,-11.988035 3.537109,-39.564454 0,-0.589519 0.06445,-2.423828 0.06445,-2.423828 H 47.398438 c 0.0655,-4.51965 0.06445,-9.2354837 0.06445,-14.4101559 z"
       transform="scale(0.26458334)"
       id="path888" />
  </g>
</svg>
