<?xml version="1.0" encoding="UTF-8" standalone="no"?>
<!-- Created with Inkscape (http://www.inkscape.org/) -->

<svg
   xmlns:osb="http://www.openswatchbook.org/uri/2009/osb"
   xmlns:dc="http://purl.org/dc/elements/1.1/"
   xmlns:cc="http://creativecommons.org/ns#"
   xmlns:rdf="http://www.w3.org/1999/02/22-rdf-syntax-ns#"
   xmlns:svg="http://www.w3.org/2000/svg"
   xmlns="http://www.w3.org/2000/svg"
   xmlns:sodipodi="http://sodipodi.sourceforge.net/DTD/sodipodi-0.dtd"
   xmlns:inkscape="http://www.inkscape.org/namespaces/inkscape"
   width="64"
   height="64"
   viewBox="0 0 16.933333 16.933334"
   version="1.1"
   id="svg8"
   inkscape:version="0.92.4 5da689c313, 2019-01-14"
   sodipodi:docname="u5065.svg">
  <title
     id="title">Array Input Method</title>
  <defs
     id="colors">
    <linearGradient
       id="lG01"
       osb:paint="solid">
      <stop
         style="stop-color:#00988c;stop-opacity:1;"
         offset="0"
         id="lG01-stop" />
    </linearGradient>
    <linearGradient
       id="lG02"
       osb:paint="solid">
      <stop
         style="stop-color:#90dd90;stop-opacity:1;"
         offset="0"
         id="lG02-stop" />
    </linearGradient>
    <linearGradient
       id="lG03"
       osb:paint="solid">
      <stop
         style="stop-color:#ff9955;stop-opacity:1;"
         offset="0"
         id="lG03-stop" />
    </linearGradient>
    <linearGradient
       id="lG04"
       osb:paint="solid">
      <stop
         style="stop-color:#d35f5f;stop-opacity:1;"
         offset="0"
         id="lG04-stop" />
    </linearGradient>
    <linearGradient
       id="lG05"
       osb:paint="solid">
      <stop
         style="stop-color:#b3b3b3;stop-opacity:1;"
         offset="0"
         id="lG05-stop" />
    </linearGradient>
  </defs>
  <sodipodi:namedview
     id="base"
     pagecolor="#ffffff"
     bordercolor="#666666"
     borderopacity="1.0"
     inkscape:pageopacity="0.0"
     inkscape:pageshadow="2"
     inkscape:zoom="10.679688"
     inkscape:cx="29.798247"
     inkscape:cy="46.260371"
     inkscape:document-units="px"
     inkscape:current-layer="layer1"
     showgrid="false"
     units="px"
     inkscape:window-width="1920"
     inkscape:window-height="1010"
     inkscape:window-x="0"
     inkscape:window-y="0"
     inkscape:window-maximized="1" />
  <metadata
     id="metadata">
    <rdf:RDF>
      <cc:Work
         rdf:about="">
        <dc:format>image/svg+xml</dc:format>
        <dc:type
           rdf:resource="http://purl.org/dc/dcmitype/StillImage" />
        <dc:title>Array Input Method</dc:title>
        <cc:license
           rdf:resource="http://creativecommons.org/licenses/by-sa/4.0/" />
        <dc:creator>
          <cc:Agent>
            <dc:title>kogiokka</dc:title>
          </cc:Agent>
        </dc:creator>
      </cc:Work>
      <cc:License
         rdf:about="http://creativecommons.org/licenses/by-sa/4.0/">
        <cc:permits
           rdf:resource="http://creativecommons.org/ns#Reproduction" />
        <cc:permits
           rdf:resource="http://creativecommons.org/ns#Distribution" />
        <cc:requires
           rdf:resource="http://creativecommons.org/ns#Notice" />
        <cc:requires
           rdf:resource="http://creativecommons.org/ns#Attribution" />
        <cc:permits
           rdf:resource="http://creativecommons.org/ns#DerivativeWorks" />
        <cc:requires
           rdf:resource="http://creativecommons.org/ns#ShareAlike" />
      </cc:License>
    </rdf:RDF>
  </metadata>
  <g
     inkscape:label="Layer 1"
     inkscape:groupmode="layer"
     id="layer1"
     transform="translate(0,-280.06665)">
    <path
       style="font-style:normal;font-variant:normal;font-weight:normal;font-stretch:normal;font-size:17.25543404px;line-height:1.25;font-family:'Noto Sans CJK TC';-inkscape-font-specification:'Noto Sans CJK TC';text-align:start;text-anchor:start;fill:url(#lG03);fill-opacity:1;stroke:none;"
       d="M 43.021484 2.4570312 L 43.021484 7.8691406 L 43.021484 29.130859 L 43.021484 33.890625 L 33.435547 33.890625 L 33.435547 37.869141 L 43.021484 37.869141 L 43.021484 42.957031 L 31.804688 42.957031 L 31.804688 46.935547 L 43.021484 46.935547 L 43.021484 54.761719 L 47.195312 54.761719 L 47.195312 46.935547 L 60.5 46.935547 L 60.5 42.957031 L 47.195312 42.957031 L 47.195312 37.869141 L 58.412109 37.869141 L 58.412109 33.890625 L 47.195312 33.890625 L 47.195312 29.130859 L 47.195312 7.8691406 L 47.195312 2.4570312 L 43.021484 2.4570312 z "
       transform="matrix(0.26458334,0,0,0.26458334,0,280.06665)"
       id="path1094" />
    <path
       style="font-style:normal;font-variant:normal;font-weight:normal;font-stretch:normal;font-size:17.25543404px;line-height:1.25;font-family:'Noto Sans CJK TC';-inkscape-font-specification:'Noto Sans CJK TC';text-align:start;text-anchor:start;fill:url(#lG02);fill-opacity:1;stroke:none;"
       d="M 34.542969 7.8691406 L 34.542969 11.587891 L 43.021484 11.587891 L 43.021484 7.8691406 L 34.542969 7.8691406 z M 47.195312 7.8691406 L 47.195312 11.587891 L 53.261719 11.587891 L 53.261719 16.542969 L 47.195312 16.542969 L 47.195312 20.326172 L 53.261719 20.326172 L 53.261719 25.412109 L 47.195312 25.412109 L 47.195312 29.130859 L 57.109375 29.130859 L 57.109375 20.326172 L 61.673828 20.326172 L 61.673828 16.542969 L 57.109375 16.542969 L 57.109375 7.8691406 L 47.195312 7.8691406 z M 31.542969 16.542969 L 31.542969 20.326172 L 43.021484 20.326172 L 43.021484 16.542969 L 31.542969 16.542969 z M 34.542969 25.412109 L 34.542969 29.130859 L 43.021484 29.130859 L 43.021484 25.412109 L 34.542969 25.412109 z "
       transform="matrix(0.26458334,0,0,0.26458334,0,280.06665)"
       id="path1092" />
    <path
       style="font-style:normal;font-variant:normal;font-weight:normal;font-stretch:normal;font-size:17.25543404px;line-height:1.25;font-family:'Noto Sans CJK TC';-inkscape-font-specification:'Noto Sans CJK TC';text-align:start;text-anchor:start;fill:url(#lG01);fill-opacity:1;stroke:none;"
       d="M 13.804688,2.5878906 C 11.261209,12.109617 7.0217389,21.434803 2,27.5 c 0.7826087,1.239156 2.0860227,3.848345 2.4121094,4.957031 1.6956521,-2.152176 3.2617187,-4.500707 4.7617187,-7.109375 V 61.869141 H 13.478516 V 16.804688 c 1.760869,-4.173884 3.391728,-8.608185 4.630859,-13.0429692 z"
       transform="matrix(0.26458334,0,0,0.26458334,0,280.06665)"
       id="path1084" />
    <path
       style="font-style:normal;font-variant:normal;font-weight:normal;font-stretch:normal;font-size:17.25543404px;line-height:1.25;font-family:'Noto Sans CJK TC';-inkscape-font-specification:'Noto Sans CJK TC';text-align:start;text-anchor:start;fill:url(#lG04);fill-opacity:1;stroke:none;"
       d="m 18.173828,7.1523438 v 4.2382812 h 7.173828 c -2.347826,6.456529 -5.283033,13.695796 -7.630859,18.652344 h 9.847656 c -0.717391,6 -1.760955,11.152288 -3.326172,15.326172 -1.565217,-2.543471 -2.933084,-5.60878 -3.976562,-9.326172 l -3.523438,1.435547 c 1.5,4.95651 3.457626,8.934021 5.740235,12.064453 -2.086957,4.108686 -4.760615,7.240402 -8.021485,9.392578 0.847826,0.58696 2.478686,2.086198 3.13086,3.064453 3,-2.152176 5.607591,-5.151395 7.759765,-9.064453 6.586956,6.58696 15.391645,8.150391 25.304688,8.150391 H 60.5 c 0.130431,-1.173884 0.847827,-3.063933 1.5,-4.107422 -2.413043,0.06538 -9.32702,0.06445 -11.087891,0.06445 -9.130435,0 -17.607082,-1.433315 -23.802734,-7.955078 C 29.587636,43.348791 31.152174,35.913244 32,26.652344 L 29.457031,26.064453 29,26.130859 h -5.283203 c 2.478261,-5.608705 5.413468,-13.04375 7.630859,-18.9785152 z"
       transform="matrix(0.26458334,0,0,0.26458334,0,280.06665)"
       id="path1082" />
  </g>
</svg>
