<?xml version="1.0" encoding="UTF-8" standalone="no"?>
<!-- Created with Inkscape (http://www.inkscape.org/) -->

<svg
   xmlns:osb="http://www.openswatchbook.org/uri/2009/osb"
   xmlns:dc="http://purl.org/dc/elements/1.1/"
   xmlns:cc="http://creativecommons.org/ns#"
   xmlns:rdf="http://www.w3.org/1999/02/22-rdf-syntax-ns#"
   xmlns:svg="http://www.w3.org/2000/svg"
   xmlns="http://www.w3.org/2000/svg"
   xmlns:sodipodi="http://sodipodi.sourceforge.net/DTD/sodipodi-0.dtd"
   xmlns:inkscape="http://www.inkscape.org/namespaces/inkscape"
   width="64"
   height="64"
   viewBox="0 0 16.933333 16.933334"
   version="1.1"
   id="svg8"
   inkscape:version="0.92.4 5da689c313, 2019-01-14"
   sodipodi:docname="u50a2.svg">
  <title
     id="title">Array Input Method</title>
  <defs
     id="colors">
    <linearGradient
       id="lG01"
       osb:paint="solid">
      <stop
         style="stop-color:#00988c;stop-opacity:1;"
         offset="0"
         id="lG01-stop" />
    </linearGradient>
    <linearGradient
       id="lG02"
       osb:paint="solid">
      <stop
         style="stop-color:#90dd90;stop-opacity:1;"
         offset="0"
         id="lG02-stop" />
    </linearGradient>
    <linearGradient
       id="lG03"
       osb:paint="solid">
      <stop
         style="stop-color:#ff9955;stop-opacity:1;"
         offset="0"
         id="lG03-stop" />
    </linearGradient>
    <linearGradient
       id="lG04"
       osb:paint="solid">
      <stop
         style="stop-color:#d35f5f;stop-opacity:1;"
         offset="0"
         id="lG04-stop" />
    </linearGradient>
    <linearGradient
       id="lG05"
       osb:paint="solid">
      <stop
         style="stop-color:#b3b3b3;stop-opacity:1;"
         offset="0"
         id="lG05-stop" />
    </linearGradient>
  </defs>
  <sodipodi:namedview
     id="base"
     pagecolor="#ffffff"
     bordercolor="#666666"
     borderopacity="1.0"
     inkscape:pageopacity="0.0"
     inkscape:pageshadow="2"
     inkscape:zoom="10.617188"
     inkscape:cx="11.169044"
     inkscape:cy="33.055275"
     inkscape:document-units="px"
     inkscape:current-layer="layer1"
     showgrid="false"
     units="px"
     inkscape:window-width="1920"
     inkscape:window-height="1010"
     inkscape:window-x="0"
     inkscape:window-y="0"
     inkscape:window-maximized="1" />
  <metadata
     id="metadata">
    <rdf:RDF>
      <cc:Work
         rdf:about="">
        <dc:format>image/svg+xml</dc:format>
        <dc:type
           rdf:resource="http://purl.org/dc/dcmitype/StillImage" />
        <dc:title>Array Input Method</dc:title>
        <cc:license
           rdf:resource="http://creativecommons.org/licenses/by-sa/4.0/" />
        <dc:creator>
          <cc:Agent>
            <dc:title>kogiokka</dc:title>
          </cc:Agent>
        </dc:creator>
      </cc:Work>
      <cc:License
         rdf:about="http://creativecommons.org/licenses/by-sa/4.0/">
        <cc:permits
           rdf:resource="http://creativecommons.org/ns#Reproduction" />
        <cc:permits
           rdf:resource="http://creativecommons.org/ns#Distribution" />
        <cc:requires
           rdf:resource="http://creativecommons.org/ns#Notice" />
        <cc:requires
           rdf:resource="http://creativecommons.org/ns#Attribution" />
        <cc:permits
           rdf:resource="http://creativecommons.org/ns#DerivativeWorks" />
        <cc:requires
           rdf:resource="http://creativecommons.org/ns#ShareAlike" />
      </cc:License>
    </rdf:RDF>
  </metadata>
  <g
     inkscape:label="Layer 1"
     inkscape:groupmode="layer"
     id="layer1"
     transform="translate(0,-280.06665)">
    <path
       style="font-style:normal;font-variant:normal;font-weight:normal;font-stretch:normal;font-size:16.9604702px;line-height:1.25;font-family:'Noto Sans CJK TC';-inkscape-font-specification:'Noto Sans CJK TC';text-align:start;text-anchor:start;fill:url(#lG02);fill-opacity:1;stroke:none;"
       d="M 39.244141,3.2675781 35.140625,4.484375 c 0.705128,1.730759 1.411007,3.9105706 1.923828,5.769531 H 18.923828 v 10.320313 h 4.357422 v -6.47461 h 31.410156 v 6.47461 h 4.552735 V 10.253906 H 41.871094 C 41.230067,8.2026433 40.205679,5.5111813 39.244141,3.2675781 Z"
       transform="matrix(0.26458334,0,0,0.26458334,0,280.06665)"
       id="path852" />
    <path
       style="font-style:normal;font-variant:normal;font-weight:normal;font-stretch:normal;font-size:16.9604702px;line-height:1.25;font-family:'Noto Sans CJK TC';-inkscape-font-specification:'Noto Sans CJK TC';text-align:start;text-anchor:start;fill:url(#lG01);fill-opacity:1;stroke:none;"
       d="M 15.140625,3.3945312 C 12.191907,13.266317 7.3205128,23.009654 2,29.419922 c 0.6410256,1.217953 1.8598758,3.719195 2.3085938,4.873047 1.9871795,-2.564107 4.0371593,-5.51395 5.8320312,-8.783203 v 36.089843 h 4.294922 V 17.177734 c 1.794872,-4.102563 3.397987,-8.3333351 4.744141,-12.4999996 z"
       transform="matrix(0.26458334,0,0,0.26458334,0,280.06665)"
       id="path850" />
    <path
       style="font-style:normal;font-variant:normal;font-weight:normal;font-stretch:normal;font-size:16.9604702px;line-height:1.25;font-family:'Noto Sans CJK TC';-inkscape-font-specification:'Noto Sans CJK TC';text-align:start;text-anchor:start;fill:url(#lG03);fill-opacity:1;stroke:none;"
       d="M 23.986328 19.613281 L 23.986328 23.394531 L 35.845703 23.394531 L 41.039062 23.394531 L 53.666016 23.394531 L 53.666016 19.613281 L 41.341797 19.613281 L 39.314453 19.613281 L 23.986328 19.613281 z "
       transform="matrix(0.26458334,0,0,0.26458334,0,280.06665)"
       id="path848" />
    <path
       style="font-style:normal;font-variant:normal;font-weight:normal;font-stretch:normal;font-size:16.9604702px;line-height:1.25;font-family:'Noto Sans CJK TC';-inkscape-font-specification:'Noto Sans CJK TC';text-align:start;text-anchor:start;fill:url(#lG04);fill-opacity:1;stroke:none;"
       d="m 35.845703,23.394531 c -4.423077,3.974362 -10.896584,7.179521 -16.986328,9.294922 0.769231,0.76921 2.050932,2.436183 2.435547,3.269531 4.679487,-1.794859 9.679387,-4.487502 13.910156,-7.564453 0.769231,1.025651 1.346905,2.115327 1.923828,3.205078 -4.294872,4.294866 -12.499899,9.1021 -18.910156,11.345703 0.897436,0.833349 1.922376,2.308372 2.371094,3.333985 5.76923,-2.564069 13.141525,-7.114938 17.949218,-11.345703 0.512818,1.538456 0.896282,3.07674 1.216797,4.615234 -4.743591,5.448718 -13.844801,11.218744 -21.537109,13.71875 0.961539,0.961512 1.923077,2.49974 2.5,3.525391 6.666667,-2.692309 14.294721,-7.565146 19.615234,-12.69336 0.384616,5.769222 -0.705327,10.833534 -2.179687,12.179688 -0.897436,1.153852 -1.794822,1.283203 -3.205078,1.283203 -1.089744,0 -2.885517,-0.0016 -4.808594,-0.257812 0.641026,1.217914 1.025391,2.950016 1.025391,4.167968 1.730769,0.128126 3.525841,0.126953 4.679687,0.126953 2.564104,-0.06425 4.038412,-0.575881 5.705078,-2.30664 2.884615,-2.82051 4.231873,-12.436839 1.988281,-21.603516 0.961539,-0.384605 1.922876,-0.832507 2.820313,-1.28125 3.01282,7.56412 7.755709,15.641033 12.371094,20 C 59.499697,55.318452 60.974357,53.71456 62,52.945312 57.384615,49.227391 52.44942,41.727409 49.628906,34.740234 c 3.01282,-1.538456 6.152342,-3.396156 8.652344,-5.126953 l -3.396484,-2.693359 c -3.141026,2.243603 -8.077825,5.191944 -12.308594,7.435547 -1.025639,-3.076951 -2.498799,-5.895811 -4.421875,-8.267578 1.025639,-0.897449 1.987328,-1.731848 2.884765,-2.69336 z"
       transform="matrix(0.26458334,0,0,0.26458334,0,280.06665)"
       id="path846" />
  </g>
</svg>
