<?xml version="1.0" encoding="UTF-8" standalone="no"?>
<!-- Created with Inkscape (http://www.inkscape.org/) -->

<svg
   xmlns:osb="http://www.openswatchbook.org/uri/2009/osb"
   xmlns:dc="http://purl.org/dc/elements/1.1/"
   xmlns:cc="http://creativecommons.org/ns#"
   xmlns:rdf="http://www.w3.org/1999/02/22-rdf-syntax-ns#"
   xmlns:svg="http://www.w3.org/2000/svg"
   xmlns="http://www.w3.org/2000/svg"
   xmlns:sodipodi="http://sodipodi.sourceforge.net/DTD/sodipodi-0.dtd"
   xmlns:inkscape="http://www.inkscape.org/namespaces/inkscape"
   width="64"
   height="64"
   viewBox="0 0 16.933333 16.933334"
   version="1.1"
   id="svg8"
   inkscape:version="0.92.4 (unknown)"
   sodipodi:docname="u51a2.svg">
  <title
     id="title">Array Input Method</title>
  <defs
     id="colors">
    <linearGradient
       id="lG01"
       osb:paint="solid">
      <stop
         style="stop-color:#00988c;stop-opacity:1;"
         offset="0"
         id="lG01-stop" />
    </linearGradient>
    <linearGradient
       id="lG02"
       osb:paint="solid">
      <stop
         style="stop-color:#90dd90;stop-opacity:1;"
         offset="0"
         id="lG02-stop" />
    </linearGradient>
    <linearGradient
       id="lG03"
       osb:paint="solid">
      <stop
         style="stop-color:#ff9955;stop-opacity:1;"
         offset="0"
         id="lG03-stop" />
    </linearGradient>
    <linearGradient
       id="lG04"
       osb:paint="solid">
      <stop
         style="stop-color:#d35f5f;stop-opacity:1;"
         offset="0"
         id="lG04-stop" />
    </linearGradient>
    <linearGradient
       id="lG05"
       osb:paint="solid">
      <stop
         style="stop-color:#b3b3b3;stop-opacity:1;"
         offset="0"
         id="lG05-stop" />
    </linearGradient>
  </defs>
  <sodipodi:namedview
     id="base"
     pagecolor="#ffffff"
     bordercolor="#666666"
     borderopacity="1.0"
     inkscape:pageopacity="0.0"
     inkscape:pageshadow="2"
     inkscape:zoom="14.904485"
     inkscape:cx="25.146255"
     inkscape:cy="24.262318"
     inkscape:document-units="px"
     inkscape:current-layer="layer1"
     showgrid="false"
     units="px"
     inkscape:window-width="1920"
     inkscape:window-height="1012"
     inkscape:window-x="0"
     inkscape:window-y="0"
     inkscape:window-maximized="1"
     showguides="false" />
  <metadata
     id="metadata">
    <rdf:RDF>
      <cc:Work
         rdf:about="">
        <dc:format>image/svg+xml</dc:format>
        <dc:type
           rdf:resource="http://purl.org/dc/dcmitype/StillImage" />
        <dc:title>Array Input Method</dc:title>
        <cc:license
           rdf:resource="http://creativecommons.org/licenses/by-sa/4.0/" />
        <dc:creator>
          <cc:Agent>
            <dc:title>kogiokka</dc:title>
          </cc:Agent>
        </dc:creator>
      </cc:Work>
      <cc:License
         rdf:about="http://creativecommons.org/licenses/by-sa/4.0/">
        <cc:permits
           rdf:resource="http://creativecommons.org/ns#Reproduction" />
        <cc:permits
           rdf:resource="http://creativecommons.org/ns#Distribution" />
        <cc:requires
           rdf:resource="http://creativecommons.org/ns#Notice" />
        <cc:requires
           rdf:resource="http://creativecommons.org/ns#Attribution" />
        <cc:permits
           rdf:resource="http://creativecommons.org/ns#DerivativeWorks" />
        <cc:requires
           rdf:resource="http://creativecommons.org/ns#ShareAlike" />
      </cc:License>
    </rdf:RDF>
  </metadata>
  <g
     inkscape:label="Layer 1"
     inkscape:groupmode="layer"
     id="layer1"
     transform="translate(0,-280.06665)">
    <path
       style="font-style:normal;font-variant:normal;font-weight:normal;font-stretch:normal;font-size:18.26812363px;line-height:1.25;font-family:'Noto Sans CJK TC';-inkscape-font-specification:'Noto Sans CJK TC, Normal';font-variant-ligatures:normal;font-variant-caps:normal;font-variant-numeric:normal;font-feature-settings:normal;text-align:start;writing-mode:lr-tb;text-anchor:start;fill:url(#lG01);stroke:none;"       d="M 2.7460938,2 V 15.326172 H 7.6464844 V 6.5566406 H 55.978516 v 8.7695314 h 5.041015 V 2 Z"
       transform="matrix(0.26458334,0,0,0.26458334,0,280.06665)"
       id="path4809" />
    <path
       style="font-style:normal;font-variant:normal;font-weight:normal;font-stretch:normal;font-size:18.26812363px;line-height:1.25;font-family:'Noto Sans CJK TC';-inkscape-font-specification:'Noto Sans CJK TC, Normal';font-variant-ligatures:normal;font-variant-caps:normal;font-variant-numeric:normal;font-feature-settings:normal;text-align:start;writing-mode:lr-tb;text-anchor:start;fill:url(#lG02);stroke:none;"       d="M 11.375,12.150391 V 16.5 h 16.226562 c 1.448701,-1.022778 2.578525,-2.151839 3.277344,-2.746094 L 34.644531,16.5 h 18.089844 v -4.349609 z"
       transform="matrix(0.26458334,0,0,0.26458334,0,280.06665)"
       id="path4807" />
    <path
       style="font-style:normal;font-variant:normal;font-weight:normal;font-stretch:normal;font-size:18.26812363px;line-height:1.25;font-family:'Noto Sans CJK TC';-inkscape-font-specification:'Noto Sans CJK TC, Normal';font-variant-ligatures:normal;font-variant-caps:normal;font-variant-numeric:normal;font-feature-settings:normal;text-align:start;writing-mode:lr-tb;text-anchor:start;fill:url(#lG03);stroke:none;"       d="M 30.878906 13.753906 C 30.180087 14.348161 29.050263 15.477222 27.601562 16.5 C 20.697075 21.056976 11.031 24.853632 2.4003906 27.201172 C 3.3670189 28.098772 4.8864083 30.10036 5.5078125 31.205078 C 11.859941 29.064694 19.039182 26.165841 25.322266 22.644531 C 26.841253 24.370679 28.223407 26.166343 29.328125 28.099609 C 26.497285 30.309046 22.56145 32.655798 18.142578 34.865234 L 20.904297 38.041016 C 24.701765 35.969646 28.291521 33.829148 31.191406 31.757812 C 31.9509 33.276808 32.504385 35.002492 32.849609 36.521484 C 30.847308 38.799973 28.223521 41.147986 25.185547 43.357422 L 27.601562 46.740234 C 29.880046 45.083176 32.020554 43.28861 33.884766 41.5625 C 34.782349 48.121757 33.678084 53.852583 31.675781 55.716797 C 30.571063 57.097685 29.328266 57.304685 27.740234 57.304688 C 26.221247 57.304688 24.149575 57.234888 21.871094 56.958984 C 22.699632 58.408925 23.112596 60.411388 23.181641 61.861328 C 25.252987 61.999281 27.186776 62 28.636719 62 C 31.674693 62 33.470355 61.377973 35.472656 59.306641 C 38.993947 56.199604 40.444496 46.879754 38.166016 37.351562 C 39.0636 36.799185 40.098509 36.24643 40.996094 35.625 C 44.862607 44.738915 51.215234 53.162504 58.257812 57.650391 C 59.017308 56.269502 60.604849 54.473166 61.847656 53.4375 C 54.805081 49.64002 48.245897 41.770472 44.724609 33.416016 C 48.936345 30.792305 53.354398 27.823016 56.806641 24.992188 L 53.494141 21.470703 C 49.213361 25.199131 42.446152 29.894262 36.853516 33.070312 C 35.265483 28.444322 32.711428 24.025909 29.121094 20.435547 C 31.123395 19.192763 32.987454 17.880888 34.644531 16.5 L 30.878906 13.753906 z M 14 36.798828 C 9.9953968 38.524938 5.9907244 39.974062 2.4003906 41.009766 C 3.5051086 41.97638 4.6793774 43.634131 5.3007812 44.876953 C 8.891115 43.634131 12.826161 41.977495 16.761719 40.113281 L 14 36.798828 z M 21.25 45.982422 C 15.381186 49.71085 8.682789 52.816128 2.46875 54.611328 C 3.573468 55.646994 4.6793774 57.442725 5.3007812 58.685547 C 11.307685 56.545125 17.797201 53.231036 23.666016 49.433594 L 21.25 45.982422 z "
       transform="matrix(0.26458334,0,0,0.26458334,0,280.06665)"
       id="path4805" />
    <path
       style="font-style:normal;font-variant:normal;font-weight:normal;font-stretch:normal;font-size:18.26812363px;line-height:1.25;font-family:'Noto Sans CJK TC';-inkscape-font-specification:'Noto Sans CJK TC, Normal';font-variant-ligatures:normal;font-variant-caps:normal;font-variant-numeric:normal;font-feature-settings:normal;text-align:start;writing-mode:lr-tb;text-anchor:start;fill:url(#lG04);stroke:none;"       d="M 14.275391 30.722656 L 10.478516 32.863281 C 11.652279 34.106065 12.757192 35.41794 14 36.798828 L 16.761719 40.113281 C 18.349751 42.046547 19.869103 44.049156 21.25 45.982422 L 23.666016 49.433594 C 24.632644 50.952586 25.529672 52.334648 26.082031 53.646484 L 30.294922 51.160156 C 29.535428 49.779268 28.706283 48.328278 27.601562 46.740234 L 25.185547 43.357422 L 20.904297 38.041016 L 18.142578 34.865234 C 16.830725 33.415294 15.587243 31.96544 14.275391 30.722656 z "
       transform="matrix(0.26458334,0,0,0.26458334,0,280.06665)"
       id="path4803" />
  </g>
</svg>
