<?xml version="1.0" encoding="UTF-8" standalone="no"?>
<!-- Created with Inkscape (http://www.inkscape.org/) -->

<svg
   xmlns:osb="http://www.openswatchbook.org/uri/2009/osb"
   xmlns:dc="http://purl.org/dc/elements/1.1/"
   xmlns:cc="http://creativecommons.org/ns#"
   xmlns:rdf="http://www.w3.org/1999/02/22-rdf-syntax-ns#"
   xmlns:svg="http://www.w3.org/2000/svg"
   xmlns="http://www.w3.org/2000/svg"
   xmlns:sodipodi="http://sodipodi.sourceforge.net/DTD/sodipodi-0.dtd"
   xmlns:inkscape="http://www.inkscape.org/namespaces/inkscape"
   width="64"
   height="64"
   viewBox="0 0 16.933333 16.933334"
   version="1.1"
   id="svg"
   inkscape:version="0.92.4 (unknown)"
   sodipodi:docname="u51f1.svg">
  <title
     id="title">Array Input Method</title>
  <defs
     id="colors">
    <linearGradient
       id="lG01"
       osb:paint="solid">
      <stop
         style="stop-color:#00988c;stop-opacity:1;"
         offset="0"
         id="lG01-stop" />
    </linearGradient>
    <linearGradient
       id="lG02"
       osb:paint="solid">
      <stop
         style="stop-color:#90dd90;stop-opacity:1;"
         offset="0"
         id="lG02-stop" />
    </linearGradient>
    <linearGradient
       id="lG03"
       osb:paint="solid">
      <stop
         style="stop-color:#ff9955;stop-opacity:1;"
         offset="0"
         id="lG03-stop" />
    </linearGradient>
    <linearGradient
       id="lG04"
       osb:paint="solid">
      <stop
         style="stop-color:#d35f5f;stop-opacity:1;"
         offset="0"
         id="lG04-stop" />
    </linearGradient>
    <linearGradient
       id="lG05"
       osb:paint="solid">
      <stop
         style="stop-color:#b3b3b3;stop-opacity:1;"
         offset="0"
         id="lG05-stop" />
    </linearGradient>
  </defs>
  <sodipodi:namedview
     id="base"
     pagecolor="#ffffff"
     bordercolor="#666666"
     borderopacity="1.0"
     inkscape:pageopacity="0.0"
     inkscape:pageshadow="2"
     inkscape:zoom="8.8317641"
     inkscape:cx="41.538162"
     inkscape:cy="36.792535"
     inkscape:document-units="px"
     inkscape:current-layer="layer1"
     showgrid="false"
     units="px"
     inkscape:window-width="1920"
     inkscape:window-height="1012"
     inkscape:window-x="0"
     inkscape:window-y="0"
     inkscape:window-maximized="1"
     showguides="false" />
  <metadata
     id="metadata">
    <rdf:RDF>
      <cc:Work
         rdf:about="">
        <dc:format>image/svg+xml</dc:format>
        <dc:type
           rdf:resource="http://purl.org/dc/dcmitype/StillImage" />
        <dc:title>Array Input Method</dc:title>
        <dc:creator>
          <cc:Agent>
            <dc:title>kogiokka</dc:title>
          </cc:Agent>
        </dc:creator>
        <cc:license
           rdf:resource="http://creativecommons.org/licenses/by-sa/4.0/" />
      </cc:Work>
      <cc:License
         rdf:about="http://creativecommons.org/licenses/by-sa/4.0/">
        <cc:permits
           rdf:resource="http://creativecommons.org/ns#Reproduction" />
        <cc:permits
           rdf:resource="http://creativecommons.org/ns#Distribution" />
        <cc:requires
           rdf:resource="http://creativecommons.org/ns#Notice" />
        <cc:requires
           rdf:resource="http://creativecommons.org/ns#Attribution" />
        <cc:permits
           rdf:resource="http://creativecommons.org/ns#DerivativeWorks" />
        <cc:requires
           rdf:resource="http://creativecommons.org/ns#ShareAlike" />
      </cc:License>
    </rdf:RDF>
  </metadata>
  <g
     inkscape:label="Layer 1"
     inkscape:groupmode="layer"
     id="layer1"
     transform="translate(0,-280.06665)">
    <path
       style="font-style:normal;font-variant:normal;font-weight:normal;font-stretch:normal;font-size:17.03326225px;line-height:1.25;font-family:'Noto Sans CJK TC';-inkscape-font-specification:'Noto Sans CJK TC, Normal';font-variant-ligatures:normal;font-variant-caps:normal;font-variant-numeric:normal;font-feature-settings:normal;text-align:start;writing-mode:lr-tb;text-anchor:start;fill:url(#lG01);stroke:none;fill-opacity:1"
       d="M 14.939453,3.03125 V 14.167969 H 8.5019531 V 5.3496094 H 4.5097656 V 17.966797 H 30.261719 V 5.3496094 H 26.142578 V 14.167969 H 19.318359 V 3.03125 Z"
       transform="matrix(0.26458334,0,0,0.26458334,0,280.06665)"
       id="path920" />
    <path
       style="font-style:normal;font-variant:normal;font-weight:normal;font-stretch:normal;font-size:17.03326225px;line-height:1.25;font-family:'Noto Sans CJK TC';-inkscape-font-specification:'Noto Sans CJK TC, Normal';font-variant-ligatures:normal;font-variant-caps:normal;font-variant-numeric:normal;font-feature-settings:normal;text-align:start;writing-mode:lr-tb;text-anchor:start;fill:url(#lG04);stroke:none;fill-opacity:1"
       d="M 35.025391 5.5429688 L 35.025391 26.722656 C 35.025391 34.83424 34.445589 44.876922 29.681641 53.181641 L 28.136719 55.626953 C 27.428564 56.592622 26.721675 57.495218 25.884766 58.396484 C 26.979186 58.975886 28.844654 60.262709 29.617188 61.099609 C 38.308176 51.571723 39.46875 37.344981 39.46875 26.722656 L 39.46875 10.048828 L 49.125 10.048828 L 49.125 51.121094 C 49.125 56.657572 49.510897 57.752993 50.476562 58.654297 C 51.377852 59.555563 52.729873 59.876953 53.888672 59.876953 L 56.720703 59.876953 C 58.008256 59.876953 59.038092 59.682868 59.875 59.039062 C 60.711912 58.395296 61.291241 57.42975 61.484375 55.820312 C 61.741874 54.40401 62 50.091919 62 46.873047 C 60.841201 46.486779 59.424726 45.778307 58.523438 44.941406 C 58.459067 48.73968 58.394443 51.636432 58.330078 53.052734 C 58.20131 54.275903 58.009449 54.855832 57.751953 55.177734 C 57.494454 55.49975 56.977988 55.626953 56.527344 55.626953 L 55.046875 55.626953 C 54.660607 55.626953 54.403918 55.499573 54.082031 55.242188 C 53.824532 54.920171 53.759766 53.6967 53.759766 51.572266 L 53.759766 5.5429688 L 35.025391 5.5429688 z "
       id="path918"
       transform="matrix(0.26458334,0,0,0.26458334,0,280.06665)" />
    <path
       style="font-style:normal;font-variant:normal;font-weight:normal;font-stretch:normal;font-size:17.03326225px;line-height:1.25;font-family:'Noto Sans CJK TC';-inkscape-font-specification:'Noto Sans CJK TC, Normal';font-variant-ligatures:normal;font-variant-caps:normal;font-variant-numeric:normal;font-feature-settings:normal;text-align:start;writing-mode:lr-tb;text-anchor:start;fill:url(#lG03);stroke:none;"
       d="M 22.730469 43.396484 C 22.086692 45.778456 20.668715 49.448019 19.638672 51.765625 L 22.021484 52.408203 C 14.36054 53.309469 7.1502149 54.08262 2 54.597656 L 2.6445312 58.912109 C 9.4685659 58.010805 18.93071 56.850122 28.136719 55.626953 L 29.681641 53.181641 L 29.681641 51.507812 L 23.759766 52.216797 C 24.854186 50.092324 26.07753 47.258561 27.236328 44.554688 L 22.730469 43.396484 z M 11.462891 43.783203 L 7.5371094 44.748047 C 8.8246633 47.451921 9.9827986 50.928487 10.304688 53.246094 L 14.552734 51.958984 C 14.166469 49.770109 13.007955 46.293943 11.462891 43.783203 z "
       transform="matrix(0.26458334,0,0,0.26458334,0,280.06665)"
       id="path916" />
    <path
       style="font-style:normal;font-variant:normal;font-weight:normal;font-stretch:normal;font-size:17.03326225px;line-height:1.25;font-family:'Noto Sans CJK TC';-inkscape-font-specification:'Noto Sans CJK TC, Normal';font-variant-ligatures:normal;font-variant-caps:normal;font-variant-numeric:normal;font-feature-settings:normal;text-align:start;writing-mode:lr-tb;text-anchor:start;fill:url(#lG02);stroke:none;"
       d="M 2.3867188 21.572266 L 2.3867188 25.5 L 32.322266 25.5 L 32.322266 21.572266 L 2.3867188 21.572266 z M 5.5410156 29.103516 L 5.5410156 42.816406 L 29.490234 42.816406 L 29.490234 29.103516 L 5.5410156 29.103516 z M 9.9824219 32.773438 L 24.853516 32.773438 L 24.853516 39.082031 L 9.9824219 39.082031 L 9.9824219 32.773438 z "
       transform="matrix(0.26458334,0,0,0.26458334,0,280.06665)"
       id="path914" />
  </g>
</svg>
