<?xml version="1.0" encoding="UTF-8" standalone="no"?>
<!-- Created with Inkscape (http://www.inkscape.org/) -->

<svg
   xmlns:osb="http://www.openswatchbook.org/uri/2009/osb"
   xmlns:dc="http://purl.org/dc/elements/1.1/"
   xmlns:cc="http://creativecommons.org/ns#"
   xmlns:rdf="http://www.w3.org/1999/02/22-rdf-syntax-ns#"
   xmlns:svg="http://www.w3.org/2000/svg"
   xmlns="http://www.w3.org/2000/svg"
   xmlns:sodipodi="http://sodipodi.sourceforge.net/DTD/sodipodi-0.dtd"
   xmlns:inkscape="http://www.inkscape.org/namespaces/inkscape"
   width="64"
   height="64"
   viewBox="0 0 16.933333 16.933334"
   version="1.1"
   id="svg"
   inkscape:version="0.92.4 (unknown)"
   sodipodi:docname="u523b.svg">
  <title
     id="title">Array Input Method</title>
  <defs
     id="colors">
    <linearGradient
       id="lG01"
       osb:paint="solid">
      <stop
         style="stop-color:#00988c;stop-opacity:1;"
         offset="0"
         id="lG01-stop" />
    </linearGradient>
    <linearGradient
       id="lG02"
       osb:paint="solid">
      <stop
         style="stop-color:#90dd90;stop-opacity:1;"
         offset="0"
         id="lG02-stop" />
    </linearGradient>
    <linearGradient
       id="lG03"
       osb:paint="solid">
      <stop
         style="stop-color:#ff9955;stop-opacity:1;"
         offset="0"
         id="lG03-stop" />
    </linearGradient>
    <linearGradient
       id="lG04"
       osb:paint="solid">
      <stop
         style="stop-color:#d35f5f;stop-opacity:1;"
         offset="0"
         id="lG04-stop" />
    </linearGradient>
    <linearGradient
       id="lG05"
       osb:paint="solid">
      <stop
         style="stop-color:#b3b3b3;stop-opacity:1;"
         offset="0"
         id="lG05-stop" />
    </linearGradient>
  </defs>
  <sodipodi:namedview
     id="base"
     pagecolor="#ffffff"
     bordercolor="#666666"
     borderopacity="1.0"
     inkscape:pageopacity="0.0"
     inkscape:pageshadow="2"
     inkscape:zoom="9.84375"
     inkscape:cx="31.16864"
     inkscape:cy="29.645907"
     inkscape:document-units="px"
     inkscape:current-layer="layer1"
     showgrid="false"
     units="px"
     inkscape:window-width="1920"
     inkscape:window-height="1012"
     inkscape:window-x="0"
     inkscape:window-y="0"
     inkscape:window-maximized="1"
     showguides="false" />
  <metadata
     id="metadata">
    <rdf:RDF>
      <cc:Work
         rdf:about="">
        <dc:format>image/svg+xml</dc:format>
        <dc:type
           rdf:resource="http://purl.org/dc/dcmitype/StillImage" />
        <dc:title>Array Input Method</dc:title>
        <dc:creator>
          <cc:Agent>
            <dc:title>kogiokka</dc:title>
          </cc:Agent>
        </dc:creator>
        <cc:license
           rdf:resource="http://creativecommons.org/licenses/by-sa/4.0/" />
      </cc:Work>
      <cc:License
         rdf:about="http://creativecommons.org/licenses/by-sa/4.0/">
        <cc:permits
           rdf:resource="http://creativecommons.org/ns#Reproduction" />
        <cc:permits
           rdf:resource="http://creativecommons.org/ns#Distribution" />
        <cc:requires
           rdf:resource="http://creativecommons.org/ns#Notice" />
        <cc:requires
           rdf:resource="http://creativecommons.org/ns#Attribution" />
        <cc:permits
           rdf:resource="http://creativecommons.org/ns#DerivativeWorks" />
        <cc:requires
           rdf:resource="http://creativecommons.org/ns#ShareAlike" />
      </cc:License>
    </rdf:RDF>
  </metadata>
  <g
     inkscape:label="Layer 1"
     inkscape:groupmode="layer"
     id="layer1"
     transform="translate(0,0)">
    <path
       style="font-style:normal;font-variant:normal;font-weight:normal;font-stretch:normal;font-size:17.33078575px;line-height:1.25;font-family:'Noto Sans CJK TC';-inkscape-font-specification:'Noto Sans CJK TC, Normal';font-variant-ligatures:normal;font-variant-caps:normal;font-variant-numeric:normal;font-feature-settings:normal;text-align:start;writing-mode:lr-tb;text-anchor:start;fill:url(#lG01);fill-opacity:1;stroke:none;"
       d="M 21.185547 2 L 16.730469 3.1796875 C 18.237019 5.4722637 19.61346 8.222144 20.333984 10.449219 L 3.5 10.449219 L 3.5 14.904297 L 16.337891 14.904297 L 21.970703 14.904297 L 38.9375 14.904297 L 38.9375 10.449219 L 25.3125 10.449219 L 25.507812 10.384766 C 24.852792 8.0921866 23.019608 4.6200872 21.185547 2 z "
       transform="scale(0.26458334)"
       id="path1227" />
    <path
       style="font-style:normal;font-variant:normal;font-weight:normal;font-stretch:normal;font-size:17.33078575px;line-height:1.25;font-family:'Noto Sans CJK TC';-inkscape-font-specification:'Noto Sans CJK TC, Normal';font-variant-ligatures:normal;font-variant-caps:normal;font-variant-numeric:normal;font-feature-settings:normal;text-align:start;writing-mode:lr-tb;text-anchor:start;fill:url(#lG02);fill-opacity:1;stroke:none;"
       d="m 21.970703,14.904297 h -5.632812 c -2.816594,4.257642 -6.157043,8.122791 -7.2050785,9.236328 -1.441048,1.50655 -2.6197886,2.48904 -3.7988281,2.685547 0.5240175,1.244541 1.309353,3.601451 1.5058594,4.583984 1.2445417,-0.524017 3.1451881,-0.719833 15.7871092,-1.505859 -5.10917,5.69869 -11.528521,10.349892 -18.4062499,13.625 0.9825328,0.91703 2.5541075,2.946251 3.078125,3.863281 C 18.237692,41.562884 28.324457,32.327212 34.285156,20.798828 l -4.388672,-1.441406 c -1.048035,2.227074 -2.422233,4.322948 -3.863281,6.353516 l -13.363281,0.589843 c 3.275109,-3.275109 6.484187,-7.269847 9.300781,-11.396484 z"
       transform="scale(0.26458334)"
       id="path1225" />
    <path
       style="font-style:normal;font-variant:normal;font-weight:normal;font-stretch:normal;font-size:17.33078575px;line-height:1.25;font-family:'Noto Sans CJK TC';-inkscape-font-specification:'Noto Sans CJK TC, Normal';font-variant-ligatures:normal;font-variant-caps:normal;font-variant-numeric:normal;font-feature-settings:normal;text-align:start;writing-mode:lr-tb;text-anchor:start;fill:url(#lG04);fill-opacity:1;stroke:none;"
       d="M 55.376953 3.1796875 L 55.376953 55.777344 C 55.376953 56.956382 54.919273 57.284106 53.740234 57.349609 C 52.692202 57.415109 48.958524 57.414203 44.962891 57.283203 C 45.683416 58.593248 46.338651 60.623549 46.535156 61.933594 C 52.102842 61.933594 55.377637 61.80256 57.408203 61.082031 C 59.37327 60.2305 60.160156 58.92145 60.160156 55.777344 L 60.160156 3.1796875 L 55.376953 3.1796875 z M 43.652344 9.859375 L 43.652344 46.082031 L 48.302734 46.082031 L 48.302734 9.859375 L 43.652344 9.859375 z "
       transform="scale(0.26458334)"
       id="path1223" />
    <path
       style="font-style:normal;font-variant:normal;font-weight:normal;font-stretch:normal;font-size:17.33078575px;line-height:1.25;font-family:'Noto Sans CJK TC';-inkscape-font-specification:'Noto Sans CJK TC, Normal';font-variant-ligatures:normal;font-variant-caps:normal;font-variant-numeric:normal;font-feature-settings:normal;text-align:start;writing-mode:lr-tb;text-anchor:start;fill:url(#lG03);fill-opacity:1;stroke:none;"
       d="M 34.154297,31.738281 C 27.735083,43.266666 16.404544,52.50187 3.828125,57.873047 4.8106578,58.85558 6.3167303,60.951963 6.90625,62 c 6.812227,-3.340611 13.362761,-7.728575 19.126953,-12.96875 3.733625,3.340611 7.924365,7.401252 10.085938,10.152344 l 3.537109,-3.275391 c -2.227073,-2.685592 -6.810393,-6.747422 -10.478516,-9.957031 3.60262,-3.799124 6.746051,-7.990116 9.431641,-12.509766 z"
       transform="scale(0.26458334)"
       id="path1210" />
  </g>
</svg>
