<?xml version="1.0" encoding="UTF-8" standalone="no"?>
<!-- Created with Inkscape (http://www.inkscape.org/) -->

<svg
   xmlns:osb="http://www.openswatchbook.org/uri/2009/osb"
   xmlns:dc="http://purl.org/dc/elements/1.1/"
   xmlns:cc="http://creativecommons.org/ns#"
   xmlns:rdf="http://www.w3.org/1999/02/22-rdf-syntax-ns#"
   xmlns:svg="http://www.w3.org/2000/svg"
   xmlns="http://www.w3.org/2000/svg"
   xmlns:sodipodi="http://sodipodi.sourceforge.net/DTD/sodipodi-0.dtd"
   xmlns:inkscape="http://www.inkscape.org/namespaces/inkscape"
   width="64"
   height="64"
   viewBox="0 0 16.933333 16.933334"
   version="1.1"
   id="svg"
   inkscape:version="0.92.4 (unknown)"
   sodipodi:docname="u52df.svg">
  <title
     id="title">Array Input Method</title>
  <defs
     id="colors">
    <linearGradient
       id="lG01"
       osb:paint="solid">
      <stop
         style="stop-color:#00988c;stop-opacity:1;"
         offset="0"
         id="lG01-stop" />
    </linearGradient>
    <linearGradient
       id="lG02"
       osb:paint="solid">
      <stop
         style="stop-color:#90dd90;stop-opacity:1;"
         offset="0"
         id="lG02-stop" />
    </linearGradient>
    <linearGradient
       id="lG03"
       osb:paint="solid">
      <stop
         style="stop-color:#ff9955;stop-opacity:1;"
         offset="0"
         id="lG03-stop" />
    </linearGradient>
    <linearGradient
       id="lG04"
       osb:paint="solid">
      <stop
         style="stop-color:#d35f5f;stop-opacity:1;"
         offset="0"
         id="lG04-stop" />
    </linearGradient>
    <linearGradient
       id="lG05"
       osb:paint="solid">
      <stop
         style="stop-color:#b3b3b3;stop-opacity:1;"
         offset="0"
         id="lG05-stop" />
    </linearGradient>
  </defs>
  <sodipodi:namedview
     id="base"
     pagecolor="#ffffff"
     bordercolor="#666666"
     borderopacity="1.0"
     inkscape:pageopacity="0.0"
     inkscape:pageshadow="2"
     inkscape:zoom="11.313708"
     inkscape:cx="14.586219"
     inkscape:cy="31.311816"
     inkscape:document-units="px"
     inkscape:current-layer="layer1"
     showgrid="false"
     units="px"
     inkscape:window-width="1920"
     inkscape:window-height="1012"
     inkscape:window-x="0"
     inkscape:window-y="0"
     inkscape:window-maximized="1"
     showguides="false" />
  <metadata
     id="metadata">
    <rdf:RDF>
      <cc:Work
         rdf:about="">
        <dc:format>image/svg+xml</dc:format>
        <dc:type
           rdf:resource="http://purl.org/dc/dcmitype/StillImage" />
        <dc:title>Array Input Method</dc:title>
        <dc:creator>
          <cc:Agent>
            <dc:title>kogiokka</dc:title>
          </cc:Agent>
        </dc:creator>
        <cc:license
           rdf:resource="http://creativecommons.org/licenses/by-sa/4.0/" />
      </cc:Work>
      <cc:License
         rdf:about="http://creativecommons.org/licenses/by-sa/4.0/">
        <cc:permits
           rdf:resource="http://creativecommons.org/ns#Reproduction" />
        <cc:permits
           rdf:resource="http://creativecommons.org/ns#Distribution" />
        <cc:requires
           rdf:resource="http://creativecommons.org/ns#Notice" />
        <cc:requires
           rdf:resource="http://creativecommons.org/ns#Attribution" />
        <cc:permits
           rdf:resource="http://creativecommons.org/ns#DerivativeWorks" />
        <cc:requires
           rdf:resource="http://creativecommons.org/ns#ShareAlike" />
      </cc:License>
    </rdf:RDF>
  </metadata>
  <g
     inkscape:label="Layer 1"
     inkscape:groupmode="layer"
     id="layer1"
     transform="translate(0,0)">
    <path
       style="font-style:normal;font-variant:normal;font-weight:normal;font-stretch:normal;font-size:17.06989288px;line-height:1.25;font-family:'Noto Sans CJK TC';-inkscape-font-specification:'Noto Sans CJK TC, Normal';font-variant-ligatures:normal;font-variant-caps:normal;font-variant-numeric:normal;font-feature-settings:normal;text-align:start;writing-mode:lr-tb;text-anchor:start;fill:url(#lG01);fill-opacity:1;stroke:none;"
       d="M 4.9500857,0.63562015 V 1.8138428 h -3.942912 v 0.9901204 h 3.942912 v 0.8020183 h 1.229383 V 2.8039632 h 2.01383 V 1.8138428 h -2.01383 V 0.63562015 Z m 5.6673543,0 V 1.8138428 H 8.7570887 V 2.8039632 H 10.61744 v 0.8020183 h 1.245919 V 2.8039632 h 4.045748 V 1.8138428 H 11.863359 V 0.63562015 Z"
       id="path1235"
       inkscape:connector-curvature="0" />
    <path
       style="font-style:normal;font-variant:normal;font-weight:normal;font-stretch:normal;font-size:17.06989288px;line-height:1.25;font-family:'Noto Sans CJK TC';-inkscape-font-specification:'Noto Sans CJK TC, Normal';font-variant-ligatures:normal;font-variant-caps:normal;font-variant-numeric:normal;font-feature-settings:normal;text-align:start;writing-mode:lr-tb;text-anchor:start;fill:url(#lG02);fill-opacity:1;stroke:none;"
       d="m 2.9016327,3.8622966 v 4.6937706 h 3.19257 1.365291 6.5892623 V 3.8622966 Z m 1.212329,0.8361246 H 12.80232 V 5.8079144 H 4.1139617 Z m 0,1.9120282 H 12.80232 V 7.7199423 H 4.1139617 Z"
       id="path1231"
       inkscape:connector-curvature="0" />
    <path
       style="font-style:normal;font-variant:normal;font-weight:normal;font-stretch:normal;font-size:17.06989288px;line-height:1.25;font-family:'Noto Sans CJK TC';-inkscape-font-specification:'Noto Sans CJK TC, Normal';font-variant-ligatures:normal;font-variant-caps:normal;font-variant-numeric:normal;font-feature-settings:normal;text-align:start;writing-mode:lr-tb;text-anchor:start;fill:url(#lG03);fill-opacity:1;stroke:none;"
       d="m 6.0942027,8.5560672 c -0.119192,0.238383 -0.273368,0.4685324 -0.447518,0.6960815 -0.07526,0.098333 -0.153233,0.1961748 -0.235645,0.2940388 H 0.90485467 V 10.570415 H 4.3356537 c -0.955915,0.751075 -2.218986,1.434038 -3.80648703,1.946134 0.256049,0.187769 0.59724703,0.614666 0.73380603,0.904854 0.768145,-0.273119 1.450958,-0.597579 2.099613,-0.921907 v -0.375688 h 0.632003 c 0.785215,-0.460887 1.450541,-1.007157 1.996777,-1.553393 h 4.8477663 c 0.477957,0.546236 1.109859,1.092506 1.792656,1.553393 h 0.478007 v 0.307475 c 0.785215,0.477957 1.638359,0.88755 2.474784,1.143599 0.187769,-0.290188 0.5294,-0.768211 0.819588,-0.99012 -1.468011,-0.375538 -3.03854,-1.126713 -4.131014,-2.014347 H 15.97732 V 9.5461875 H 6.8621137 c 0.07661,-0.1039632 0.146218,-0.208117 0.213424,-0.3126422 0.142451,-0.2215568 0.267974,-0.4455152 0.383956,-0.6774781 z"
       id="path1223"
       inkscape:connector-curvature="0" />
    <path
       style="font-style:normal;font-variant:normal;font-weight:normal;font-stretch:normal;font-size:17.06989288px;line-height:1.25;font-family:'Noto Sans CJK TC';-inkscape-font-specification:'Noto Sans CJK TC, Normal';font-variant-ligatures:normal;font-variant-caps:normal;font-variant-numeric:normal;font-feature-settings:normal;text-align:start;writing-mode:lr-tb;text-anchor:start;fill:url(#lG04);fill-opacity:1;stroke:none;"
       d="M 13.109795,12.431283 V 12.123808 H 12.631788 8.3472947 c 0.102419,-0.392608 0.187519,-0.785064 0.255798,-1.211812 h -1.194759 c -0.06828,0.426748 -0.153862,0.836274 -0.290421,1.211812 h -3.123324 -0.632003 v 0.375688 0.580326 h 3.328996 c -0.682796,1.075403 -1.963388,1.809291 -4.404382,2.236039 0.221908,0.221908 0.512013,0.665826 0.614433,0.956014 2.953091,-0.597446 4.370075,-1.621623 5.104081,-3.192053 h 3.8746993 c -0.13656,1.297312 -0.289722,1.860685 -0.477491,2.048454 -0.136559,0.136559 -0.290655,0.153479 -0.580843,0.153479 -0.256048,0 -1.0410132,-0.01699 -1.8432983,-0.08527 0.170699,0.273118 0.290405,0.699932 0.307475,0.99012 0.8364243,0.06828 1.6212063,0.06825 2.0308833,0.03411 0.443817,-0.01707 0.751125,-0.119639 1.007174,-0.375688 0.392607,-0.358467 0.563606,-1.228966 0.751375,-3.243213 0.01707,-0.03414 0.01704,-0.102253 0.03411,-0.170532 z"
       id="path1201"
       inkscape:connector-curvature="0" />
  </g>
</svg>
